2 3196 1679 160 

80 78 79
38 39 40
118 119 120
158 159 0
77 78 167
78 80 167
1 2 179
41 42 185
42 43 185
121 122 189
151 152 212
152 153 212
73 74 217
74 75 217
75 76 218
76 77 218
77 167 218
123 124 219
112 113 220
113 114 220
0 1 224
1 179 224
40 41 240
41 185 240
120 121 251
30 31 255
46 47 282
32 33 284
185 43 295
43 44 295
83 84 297
226 172 297
114 115 298
220 114 298
27 28 299
147 148 300
9 10 301
50 51 303
130 131 304
133 134 306
149 150 311
167 80 312
80 81 312
81 82 312
82 216 312
219 174 314
7 8 317
212 153 320
153 154 320
154 223 320
170 223 322
70 71 327
229 173 329
210 88 331
91 92 333
93 94 334
108 109 337
111 112 338
112 220 338
21 22 339
23 24 340
140 141 345
142 143 346
144 145 347
11 12 351
14 15 353
67 68 365
68 69 365
69 211 365
52 53 388
54 55 389
59 60 391
61 62 392
62 63 392
64 65 393
47 48 418
48 252 418
282 47 418
33 34 421
34 35 421
284 33 421
255 31 422
31 32 422
32 284 422
99 100 426
100 101 426
102 103 428
103 104 428
294 185 448
185 295 448
131 132 450
171 310 451
173 313 452
313 217 452
217 75 452
75 218 452
154 155 454
155 156 454
223 154 454
179 225 455
84 85 456
226 297 456
297 84 456
230 330 457
241 370 460
370 175 460
128 129 464
101 102 470
102 428 470
296 449 473
449 285 473
294 448 474
448 201 474
50 303 477
303 207 477
193 371 479
231 332 481
332 168 481
213 357 483
151 212 484
173 229 485
181 313 485
313 173 485
314 174 487
6 7 489
7 317 489
160 316 490
316 221 490
176 318 490
157 158 491
158 0 491
0 224 491
321 157 491
3 4 492
4 5 492
5 202 492
202 323 492
323 3 492
86 87 494
87 88 494
88 210 494
325 86 494
211 69 495
69 70 495
70 327 495
328 228 496
92 93 499
93 334 499
334 233 499
182 332 500
161 430 501
234 336 501
107 108 502
108 337 502
235 110 503
110 111 503
111 338 503
236 339 504
339 22 504
22 23 504
23 340 504
340 237 504
240 185 507
185 294 507
344 240 507
243 347 509
13 14 511
14 353 511
17 18 516
117 118 518
118 120 518
120 251 518
358 117 518
191 361 520
361 254 520
422 284 521
299 28 522
28 29 522
174 219 524
219 124 524
124 125 524
125 367 524
367 174 524
261 369 526
369 262 526
306 134 529
134 135 529
139 140 530
140 345 530
373 374 531
245 350 538
165 360 546
360 190 546
54 389 547
60 61 548
391 60 548
65 66 549
393 65 549
272 392 550
392 63 550
63 64 550
64 393 550
257 365 551
365 211 551
258 397 554
56 57 584
282 418 596
418 252 596
295 44 597
44 45 597
285 449 598
449 283 598
35 36 599
421 35 599
95 96 600
241 460 649
460 186 649
172 497 650
497 216 650
216 82 650
82 83 650
83 297 650
297 172 650
115 116 651
298 115 651
305 480 652
480 307 652
230 457 653
457 180 653
171 451 654
451 214 654
482 171 654
205 300 655
300 148 655
189 122 656
122 123 656
123 219 656
219 314 656
314 189 656
220 298 657
175 488 657
488 315 657
8 9 658
9 301 658
317 8 658
213 310 659
170 309 660
309 484 660
484 212 660
212 320 660
177 454 661
454 156 661
156 157 661
157 321 661
179 2 662
2 3 662
3 323 662
316 160 663
323 202 663
324 493 664
493 215 664
228 328 665
211 495 665
495 327 665
181 485 666
258 554 667
554 366 667
366 168 667
168 332 667
232 335 668
109 110 669
110 235 669
337 109 669
236 504 670
504 237 670
237 341 670
178 599 671
599 36 671
36 37 671
37 344 671
344 507 671
507 178 671
345 141 672
141 142 672
142 346 672
346 508 672
508 242 672
301 10 673
10 11 673
11 351 673
20 21 674
21 339 674
356 20 674
199 473 675
473 285 675
362 521 675
521 199 675
125 126 676
126 127 676
127 259 676
259 367 676
367 125 676
369 183 677
135 136 679
187 543 683
570 239 684
359 596 685
596 252 685
270 466 686
466 207 686
207 303 686
303 51 686
51 52 686
52 388 686
274 395 688
59 391 689
272 550 690
550 273 690
273 586 690
419 198 691
255 422 692
422 521 692
521 362 692
105 106 694
106 107 694
107 502 694
502 203 694
429 105 694
161 501 695
501 336 695
421 599 696
599 178 696
178 447 696
304 131 697
131 450 697
451 310 698
176 302 699
302 476 699
476 164 699
453 176 699
85 86 700
86 325 700
226 456 700
456 85 700
329 497 701
497 172 701
342 162 702
162 459 702
244 533 703
533 349 703
205 461 703
461 244 703
246 462 704
204 463 705
463 238 705
385 165 707
165 465 707
192 396 708
467 192 708
190 360 710
360 519 710
519 253 710
287 602 711
426 101 711
101 470 711
430 161 712
161 471 712
474 296 715
210 331 718
231 481 718
357 537 719
537 250 719
483 357 719
311 150 720
150 151 720
151 484 720
72 73 721
73 217 721
160 490 722
490 318 722
430 289 723
289 431 723
431 234 723
234 501 723
501 430 723
235 503 724
503 338 724
237 340 726
340 24 726
24 25 726
506 237 726
347 145 727
349 509 727
509 347 727
511 353 728
353 248 728
248 353 729
353 15 729
15 16 729
513 248 729
356 515 732
350 245 733
245 517 733
386 253 734
253 519 734
519 268 734
162 361 735
361 191 735
523 364 735
525 193 736
137 138 738
138 139 738
139 530 738
373 531 739
348 543 741
543 187 741
510 188 743
538 350 743
245 538 744
547 271 753
66 67 754
67 365 754
365 257 754
549 66 754
366 554 755
271 547 790
547 389 790
389 55 790
55 56 790
56 584 790
585 410 792
280 590 799
45 46 802
46 282 802
597 45 802
420 256 803
256 423 803
285 598 803
598 420 803
96 97 804
97 424 804
600 96 804
434 606 810
182 500 838
223 454 862
454 177 862
322 223 862
210 718 863
325 494 863
494 210 863
235 458 864
337 669 864
669 235 864
37 38 865
38 40 865
40 240 865
240 344 865
344 37 865
186 651 866
651 116 866
116 117 866
117 358 866
358 186 866
263 174 867
104 105 869
105 429 869
198 469 870
469 283 870
283 449 870
132 133 871
133 306 871
306 529 871
529 209 871
450 132 871
318 176 872
176 453 872
321 491 873
491 224 873
224 179 873
179 455 873
336 234 874
234 458 874
162 735 875
735 364 875
459 162 875
175 657 876
657 298 876
298 651 876
651 186 876
186 460 876
460 175 876
451 698 877
698 163 877
247 704 878
704 462 878
673 351 878
162 342 879
342 238 879
238 463 879
129 130 880
130 304 880
304 697 880
697 208 880
464 129 880
195 707 881
707 465 881
207 466 882
466 269 882
395 274 883
274 467 883
467 708 883
708 196 883
192 394 884
394 687 884
687 169 884
468 192 884
198 359 885
469 198 885
302 176 886
176 490 886
490 221 886
475 302 886
252 48 887
48 49 887
49 50 887
50 477 887
477 252 887
309 170 888
482 309 888
311 720 889
720 484 889
654 214 889
313 181 890
221 316 891
316 663 891
663 202 891
202 5 891
5 6 891
6 489 891
489 221 891
312 216 893
216 497 893
90 91 894
91 333 894
498 90 894
343 705 895
705 238 895
238 505 895
25 26 896
26 27 896
27 299 896
299 204 896
506 726 896
726 25 896
346 143 897
143 144 897
144 347 897
347 243 897
243 508 897
508 346 897
164 476 898
16 17 899
17 516 899
516 355 899
513 729 899
729 16 899
18 19 900
19 20 900
20 356 900
356 516 900
516 18 900
357 213 901
213 659 901
659 319 901
517 357 901
165 385 902
268 519 902
254 706 903
706 363 903
363 255 903
255 692 903
692 362 903
362 520 903
520 254 903
423 256 904
256 523 904
523 735 904
735 191 904
368 525 905
525 260 905
526 368 905
243 509 906
509 349 906
379 536 907
357 517 908
517 245 908
245 744 908
744 537 908
537 357 908
270 686 909
686 388 909
388 53 909
53 54 909
54 547 909
547 753 909
753 270 909
61 392 910
392 272 910
548 61 910
211 665 911
665 328 911
328 687 911
551 211 911
196 708 912
708 396 912
396 552 912
399 757 915
757 556 915
556 758 915
758 558 915
777 575 917
409 786 920
786 581 920
582 788 920
788 409 920
411 589 921
589 795 921
585 792 921
792 411 921
280 588 923
588 794 923
794 414 923
414 795 923
795 590 923
590 280 923
587 793 924
796 591 924
591 797 924
797 587 924
592 798 925
798 416 925
397 258 926
258 398 926
419 691 927
201 448 927
448 295 927
295 597 927
597 802 927
802 419 927
233 334 928
334 94 928
94 95 928
95 600 928
600 804 929
804 424 929
805 601 929
289 430 930
605 429 931
429 694 931
694 203 931
606 434 932
609 813 933
813 608 933
435 813 934
813 609 934
610 830 934
814 611 936
200 712 939
712 471 939
471 713 939
623 827 941
625 830 942
830 610 942
591 796 943
796 415 943
629 833 944
833 281 944
189 314 949
314 487 949
487 241 949
241 649 949
649 189 949
166 716 950
716 478 950
305 652 950
168 366 951
366 230 951
230 653 951
724 338 952
338 220 952
220 657 952
657 315 952
663 160 953
485 229 954
666 485 954
500 332 955
332 231 955
670 341 956
339 236 957
236 763 957
763 515 957
515 356 957
356 674 957
674 339 957
315 488 958
262 369 958
369 677 958
136 137 959
137 738 959
738 374 959
374 373 959
373 679 959
679 136 959
375 532 960
532 740 960
740 264 960
680 375 960
534 376 961
376 681 961
682 265 962
738 530 963
530 345 963
383 540 964
540 187 964
187 683 964
683 383 964
256 420 965
420 253 965
253 386 965
386 684 965
586 273 966
792 410 967
335 232 968
499 233 968
233 693 968
432 290 969
290 713 969
713 471 969
471 161 969
161 695 969
695 432 969
199 521 970
521 284 970
284 421 970
421 696 970
696 199 970
172 226 971
180 457 971
457 701 971
701 172 971
463 204 972
204 299 972
299 522 972
522 363 972
363 706 972
706 463 972
296 473 973
715 296 973
479 371 974
259 717 974
717 479 974
493 722 975
145 146 977
146 147 977
147 300 977
300 205 977
727 145 977
248 731 978
728 248 978
193 479 981
736 193 981
373 739 983
739 375 983
743 188 985
384 751 987
751 544 987
267 746 987
163 698 989
483 719 989
719 250 989
250 749 989
543 749 990
385 707 993
707 195 993
554 397 994
553 227 994
227 755 994
755 554 994
188 510 996
760 188 996
563 764 999
764 249 999
515 763 999
767 276 1003
567 769 1005
407 781 1009
776 407 1009
576 779 1012
571 783 1014
580 789 1015
789 583 1015
99 426 1024
426 711 1024
711 602 1024
807 99 1024
603 287 1025
287 711 1025
711 470 1025
470 428 1025
428 808 1025
808 603 1025
427 809 1027
815 607 1028
608 813 1029
813 435 1029
437 817 1033
817 613 1033
820 438 1036
822 439 1037
620 823 1038
626 832 1044
832 627 1045
630 835 1046
835 417 1046
837 630 1046
628 834 1048
839 633 1050
845 638 1053
851 445 1058
852 641 1058
251 121 1065
121 189 1065
189 649 1065
649 186 1065
186 358 1065
358 518 1065
518 251 1065
307 480 1066
480 208 1066
208 697 1066
697 450 1066
322 862 1067
862 177 1067
455 225 1067
269 466 1068
466 270 1068
394 192 1069
192 467 1069
467 274 1069
275 552 1070
552 396 1070
396 192 1070
192 468 1070
468 709 1070
709 275 1070
221 489 1071
489 317 1071
317 658 1071
475 886 1071
886 221 1071
302 475 1072
476 302 1072
464 880 1073
327 71 1074
71 72 1074
72 721 1074
721 486 1074
174 263 1075
263 678 1075
678 370 1075
370 241 1075
241 487 1075
487 174 1075
181 666 1076
666 326 1076
326 892 1076
892 496 1076
496 228 1076
228 890 1076
890 181 1076
231 718 1077
718 331 1077
232 894 1078
894 333 1078
333 92 1078
92 499 1078
499 968 1078
968 232 1078
238 342 1079
342 702 1079
702 184 1079
505 238 1079
247 878 1080
878 351 1080
351 12 1080
12 13 1080
13 511 1080
511 728 1080
29 30 1081
30 255 1081
255 363 1081
363 522 1081
522 29 1081
371 193 1082
193 525 1082
525 368 1082
527 371 1082
268 902 1083
902 385 1083
385 993 1083
993 545 1083
387 882 1084
882 269 1084
269 465 1084
465 165 1084
165 546 1084
546 387 1084
468 884 1085
884 169 1085
709 468 1085
589 411 1086
359 198 1087
282 596 1087
596 359 1087
436 713 1088
713 290 1088
290 936 1088
936 611 1088
484 309 1090
309 482 1090
482 654 1090
654 889 1090
889 484 1090
148 149 1091
149 311 1091
655 148 1091
310 171 1092
171 482 1092
659 310 1092
320 223 1093
223 170 1093
170 660 1093
660 320 1093
285 803 1094
803 423 1094
675 285 1094
529 135 1095
135 679 1095
679 373 1095
681 376 1096
380 907 1097
907 536 1097
536 265 1097
265 682 1097
239 364 1098
364 523 1098
523 256 1098
256 965 1098
965 684 1098
684 239 1098
252 477 1099
477 207 1099
207 882 1099
882 387 1099
685 252 1099
257 551 1100
296 474 1101
474 201 1101
201 927 1101
927 691 1101
874 183 1102
183 369 1102
369 261 1102
261 714 1102
714 432 1102
325 863 1103
180 971 1103
971 226 1103
226 700 1103
700 325 1103
457 330 1104
330 954 1104
954 229 1104
229 329 1104
329 701 1104
701 457 1104
352 246 1105
246 704 1105
704 247 1105
253 420 1106
420 598 1106
598 283 1106
283 469 1106
710 253 1106
447 178 1107
178 507 1107
507 294 1107
294 474 1107
474 715 1107
715 973 1107
973 447 1107
259 127 1108
127 128 1108
128 464 1108
464 717 1108
717 259 1108
493 324 1109
324 953 1109
953 160 1109
160 722 1109
722 493 1109
315 958 1110
958 677 1110
724 952 1110
952 315 1110
205 703 1112
703 349 1112
349 727 1112
727 977 1112
977 205 1112
248 513 1113
513 899 1113
899 355 1113
355 514 1113
731 248 1113
515 999 1114
999 249 1114
249 980 1114
980 732 1114
732 515 1114
222 872 1115
872 453 1115
478 1031 1116
1031 260 1116
260 525 1116
525 736 1116
736 478 1116
209 529 1117
529 737 1117
737 982 1117
982 528 1117
533 244 1118
244 348 1118
348 741 1118
741 984 1118
984 533 1118
541 748 1120
748 383 1120
383 683 1120
534 961 1121
961 377 1121
540 383 1122
383 748 1122
748 542 1122
542 988 1122
988 747 1122
747 540 1122
543 348 1123
163 989 1123
989 749 1123
749 543 1123
267 987 1124
987 544 1124
544 992 1124
992 750 1124
750 267 1124
250 537 1125
544 751 1125
409 788 1126
788 583 1126
330 230 1127
230 366 1127
366 755 1127
755 227 1127
612 823 1128
823 194 1128
914 556 1129
556 757 1129
757 555 1129
562 764 1131
764 563 1131
188 760 1135
568 1006 1136
567 1005 1136
1005 770 1136
772 569 1137
561 762 1138
574 917 1139
917 575 1139
459 875 1140
875 364 1140
364 239 1140
407 779 1141
779 576 1141
781 407 1141
577 780 1142
780 278 1142
279 787 1143
787 1016 1143
1016 582 1143
584 967 1144
967 410 1144
271 790 1144
790 584 1144
413 924 1145
924 793 1145
590 795 1147
795 589 1147
593 416 1148
416 798 1148
280 799 1149
601 1023 1150
1023 806 1150
806 425 1150
424 97 1151
97 98 1151
98 99 1151
99 807 1151
603 808 1152
808 288 1152
809 603 1152
264 933 1153
933 608 1153
932 434 1154
811 1028 1154
1028 607 1154
535 986 1155
260 1031 1156
1031 814 1156
814 936 1156
936 472 1156
814 433 1157
821 613 1158
571 819 1159
1008 774 1159
616 824 1160
439 822 1163
822 619 1163
626 943 1165
627 832 1165
832 626 1165
630 837 1166
837 442 1166
442 1048 1166
1048 834 1166
595 417 1167
417 835 1167
801 552 1168
838 1047 1169
1047 632 1169
443 842 1170
844 286 1171
427 1027 1172
1027 638 1172
638 845 1172
1053 638 1173
439 1055 1175
1055 849 1175
1051 444 1176
852 1058 1177
1058 445 1177
445 1060 1177
1060 853 1177
1059 852 1177
628 860 1180
431 931 1181
931 203 1181
203 502 1181
502 337 1181
337 864 1181
174 367 1182
367 259 1182
259 974 1182
974 371 1182
867 174 1182
214 451 1183
451 877 1183
463 706 1184
706 254 1184
254 361 1184
361 162 1184
162 879 1184
879 463 1184
173 452 1186
452 218 1186
341 237 1187
237 506 1187
506 343 1187
343 895 1187
895 341 1187
510 743 1188
743 350 1188
350 164 1188
164 898 1188
742 266 1189
907 380 1189
555 756 1190
913 555 1190
399 915 1191
774 1008 1192
1008 572 1192
406 784 1193
579 919 1193
919 406 1193
579 785 1194
785 408 1194
408 922 1194
276 938 1195
940 616 1196
292 1040 1197
1040 826 1197
826 621 1197
621 940 1197
625 942 1198
398 258 1200
258 667 1200
945 398 1200
842 443 1201
443 946 1201
946 635 1201
444 1051 1202
1051 843 1202
653 308 1205
481 168 1205
168 951 1205
951 653 1205
563 999 1206
999 763 1206
265 532 1207
532 375 1207
375 739 1207
739 531 1207
531 962 1207
962 265 1207
345 672 1208
672 242 1208
374 738 1209
738 963 1209
395 800 1210
800 586 1210
586 966 1210
273 550 1211
550 393 1211
393 549 1211
966 273 1211
584 57 1212
57 58 1212
58 59 1212
59 689 1212
967 584 1212
731 354 1213
354 997 1213
997 760 1213
978 731 1213
401 998 1214
998 761 1214
979 401 1214
683 543 1216
543 990 1216
990 384 1216
569 1007 1217
1007 773 1217
1001 564 1218
1002 766 1219
766 1001 1219
557 995 1220
767 1003 1220
570 684 1221
684 386 1221
386 734 1221
734 268 1221
268 1010 1221
779 575 1222
575 777 1222
777 405 1222
1012 779 1222
573 776 1223
776 1009 1223
753 271 1224
413 1018 1226
286 947 1227
947 636 1227
1041 624 1229
1029 435 1229
815 1028 1230
1028 291 1230
613 821 1231
1033 613 1231
639 1054 1234
847 618 1234
822 1037 1234
594 1042 1236
1042 415 1236
281 833 1237
833 1045 1237
1045 627 1237
417 836 1238
631 837 1238
837 1046 1238
1046 417 1238
838 500 1239
500 955 1239
955 668 1239
668 335 1239
1047 838 1239
442 841 1240
841 633 1240
633 839 1240
1048 442 1240
839 1050 1241
854 643 1244
643 1059 1244
446 859 1245
1061 446 1245
859 446 1246
331 88 1247
88 89 1247
89 90 1247
90 498 1247
498 1077 1247
1077 331 1247
368 526 1248
526 262 1248
262 678 1248
678 263 1248
263 527 1248
527 1082 1248
1082 368 1248
326 666 1249
227 553 1249
214 1183 1250
1183 461 1250
461 205 1250
205 655 1250
889 214 1250
301 206 1251
206 1072 1251
1072 475 1251
475 1071 1251
1071 658 1251
658 301 1251
493 975 1252
975 319 1252
319 659 1252
659 1092 1252
170 322 1253
664 215 1253
215 888 1253
888 170 1253
262 958 1254
958 488 1254
488 175 1254
175 370 1254
370 678 1254
678 262 1254
387 546 1255
546 190 1255
190 885 1255
885 359 1255
359 685 1255
685 1099 1255
1099 387 1255
551 911 1256
911 687 1256
687 394 1256
481 1205 1257
1205 308 1257
308 863 1257
863 718 1257
718 481 1257
217 313 1258
313 890 1258
890 486 1258
486 721 1258
721 217 1258
505 1079 1259
512 1105 1260
1105 247 1260
247 1080 1260
1080 728 1260
514 355 1261
355 516 1261
516 356 1261
356 732 1261
732 980 1261
980 514 1261
453 699 1262
699 164 1262
164 350 1262
350 733 1262
733 1115 1262
1115 453 1262
532 265 1263
265 536 1263
536 379 1263
379 1030 1263
1030 740 1263
740 532 1263
683 1216 1264
1216 384 1264
384 987 1264
987 746 1264
746 1120 1264
1120 683 1264
382 1119 1265
542 748 1265
568 1136 1267
1136 770 1267
762 561 1268
184 702 1269
702 459 1269
459 1140 1269
1140 777 1269
777 917 1269
917 184 1269
583 788 1270
788 582 1270
805 929 1271
929 424 1271
424 1151 1271
1151 807 1271
434 810 1272
810 1153 1272
1153 608 1272
417 595 1273
595 926 1273
926 398 1273
398 836 1273
836 417 1273
648 1245 1275
1245 859 1275
441 1180 1275
1180 860 1275
860 648 1275
371 527 1276
527 263 1276
263 867 1276
867 1182 1276
1182 371 1276
376 534 1277
868 376 1277
288 808 1278
808 428 1278
428 104 1278
104 869 1278
869 288 1278
449 296 1279
296 1101 1279
1101 691 1279
691 198 1279
198 870 1279
870 449 1279
455 1067 1280
1067 177 1280
177 661 1280
661 321 1280
321 873 1280
873 455 1280
163 1123 1281
1123 348 1281
348 244 1281
244 461 1281
461 1183 1281
1183 877 1281
877 163 1281
465 269 1282
269 1068 1282
1068 390 1282
390 1185 1282
1185 881 1282
881 465 1282
798 592 1283
800 395 1283
395 883 1283
218 167 1284
167 312 1284
312 893 1284
893 1186 1284
1186 218 1284
204 705 1285
705 343 1285
343 506 1285
506 896 1285
896 204 1285
476 246 1286
246 352 1286
352 996 1286
996 510 1286
510 1188 1286
1188 898 1286
898 476 1286
319 222 1287
222 1115 1287
1115 733 1287
733 517 1287
517 901 1287
901 319 1287
519 360 1288
360 165 1288
165 902 1288
902 519 1288
260 1156 1289
1156 472 1289
905 260 1289
349 533 1290
906 349 1290
552 801 1291
801 593 1291
593 1148 1291
1148 196 1291
196 912 1291
912 552 1291
574 1139 1292
1139 776 1292
776 573 1292
573 916 1292
577 1142 1293
1142 784 1293
918 577 1293
571 1159 1294
1159 774 1294
774 406 1294
406 919 1294
919 571 1294
581 1225 1295
1225 791 1295
791 279 1295
920 581 1295
795 414 1296
414 794 1296
794 1146 1296
921 795 1296
793 587 1297
587 922 1297
922 408 1297
430 712 1298
712 200 1298
200 1174 1298
1174 846 1298
846 604 1298
930 430 1298
932 1154 1299
1154 607 1299
934 609 1300
290 432 1301
432 714 1301
714 472 1301
472 936 1301
936 290 1301
555 757 1302
757 399 1302
937 555 1302
276 767 1303
938 276 1303
713 436 1304
618 847 1304
939 713 1304
621 1161 1305
1161 824 1305
824 616 1305
616 940 1305
940 621 1305
610 935 1306
942 610 1306
946 443 1308
636 843 1309
635 946 1309
286 844 1310
637 947 1310
947 286 1310
225 179 1311
179 662 1311
662 323 1311
323 663 1311
663 953 1311
953 225 1311
689 1086 1312
1086 411 1312
411 792 1312
792 967 1312
967 1212 1312
1212 689 1312
473 199 1313
199 696 1313
696 447 1313
447 973 1313
973 473 1313
956 341 1314
341 725 1314
725 976 1314
730 249 1315
249 764 1315
764 562 1315
562 979 1315
979 730 1315
305 950 1316
950 478 1316
478 736 1316
736 981 1316
981 305 1316
737 983 1317
983 375 1317
375 680 1317
372 982 1317
982 737 1317
540 747 1318
747 1121 1318
1121 377 1318
378 1155 1319
1155 986 1319
698 310 1320
310 213 1320
213 483 1320
483 989 1320
989 698 1320
749 250 1321
250 1125 1321
1125 751 1321
751 384 1321
384 990 1321
990 749 1321
759 558 1322
558 991 1322
991 1134 1322
1134 400 1322
381 1215 1323
1215 559 1323
993 195 1324
354 1130 1325
1130 761 1325
761 560 1325
560 997 1325
997 354 1325
404 771 1326
771 1137 1326
1137 569 1326
569 1217 1326
1217 1000 1326
1000 404 1326
1001 1218 1327
614 1195 1328
1195 938 1328
1232 614 1328
559 1215 1329
1215 985 1329
985 188 1329
188 1135 1329
770 1005 1329
1005 559 1329
768 1004 1330
1004 567 1330
567 1136 1330
1136 1006 1330
561 1138 1331
1138 775 1331
1008 1159 1332
1159 819 1332
570 1221 1333
1221 1010 1333
545 993 1334
993 752 1334
780 576 1335
615 1035 1336
819 571 1336
571 1014 1336
410 585 1337
588 280 1338
280 1149 1338
1019 1226 1338
1226 588 1338
632 1047 1340
425 806 1340
806 1022 1340
1022 632 1340
809 1026 1341
1026 604 1341
1027 809 1341
933 264 1342
264 740 1342
740 1030 1342
436 1088 1343
1088 611 1343
815 1230 1343
1230 1032 1343
1032 436 1343
818 1203 1344
1203 438 1344
438 820 1344
616 1160 1345
1160 820 1345
820 1036 1345
823 612 1346
612 817 1346
817 437 1346
437 1038 1346
1038 823 1346
440 829 1347
1039 440 1347
594 925 1349
925 416 1349
831 1042 1349
1042 594 1349
858 626 1350
626 1044 1350
1044 647 1350
441 1044 1351
1044 832 1351
832 1045 1351
335 968 1352
968 693 1352
693 425 1352
425 1340 1352
1340 1047 1352
1047 1239 1352
1239 335 1352
628 1048 1353
1048 1240 1353
1240 839 1353
841 442 1354
442 837 1354
837 631 1354
1049 841 1354
635 850 1355
1050 842 1355
842 1201 1355
1201 635 1355
851 1058 1356
1058 641 1356
641 1242 1356
1242 1051 1356
1051 1176 1356
1176 851 1356
287 603 1357
603 809 1357
809 427 1357
427 1052 1357
1052 287 1357
623 1164 1358
1164 828 1358
852 1059 1359
1059 643 1359
643 1243 1359
1243 1056 1359
1054 639 1360
853 1235 1361
1235 644 1361
644 1244 1361
1244 1059 1361
1059 1177 1361
1177 853 1361
648 1064 1362
1064 861 1362
1061 1245 1362
1245 648 1362
645 1233 1363
450 871 1364
871 209 1364
209 1117 1364
1117 528 1364
528 307 1364
307 1066 1364
1066 450 1364
479 717 1365
717 464 1365
464 1073 1365
548 910 1366
910 272 1366
589 1086 1366
198 419 1367
419 802 1367
802 282 1367
282 1087 1367
1087 198 1367
166 950 1368
950 652 1368
423 904 1369
904 191 1369
191 520 1369
520 362 1369
362 675 1369
675 1094 1369
1094 423 1369
242 508 1370
508 243 1370
432 695 1371
695 336 1371
336 874 1371
874 1102 1371
1102 432 1371
677 183 1372
183 874 1372
874 458 1372
1110 677 1372
747 988 1373
988 266 1373
266 742 1373
742 534 1373
534 1121 1373
1121 747 1373
555 913 1374
382 914 1374
914 1129 1374
1129 555 1374
767 1220 1375
1220 566 1375
564 1001 1376
1001 766 1376
1133 765 1376
1018 413 1377
413 1145 1377
233 928 1378
928 600 1378
600 929 1378
1003 276 1379
276 1195 1379
1195 821 1379
821 1158 1379
437 1033 1380
1033 1231 1380
1231 617 1380
943 415 1381
415 1042 1381
1042 831 1381
1165 943 1381
629 944 1382
944 630 1382
630 1166 1382
1166 834 1382
835 1168 1383
1168 552 1383
552 275 1383
275 1167 1383
1167 835 1383
842 1050 1384
1050 633 1384
1170 842 1384
640 1060 1385
1060 848 1385
848 1175 1385
1175 849 1385
444 845 1386
845 1053 1386
1053 642 1386
642 1176 1386
1176 444 1386
864 458 1387
458 234 1387
234 431 1387
431 1181 1387
1181 864 1387
907 1189 1388
759 995 1389
995 557 1389
784 580 1390
580 1015 1390
1015 785 1390
785 579 1390
579 1193 1390
1193 784 1390
614 1034 1391
1195 614 1391
292 1197 1392
194 823 1393
823 620 1393
1198 942 1393
797 591 1394
591 943 1394
943 1199 1394
682 962 1395
962 531 1395
531 374 1395
374 1209 1395
1209 682 1395
549 754 1396
754 257 1396
257 1100 1396
1100 688 1396
1211 549 1396
564 773 1397
1218 564 1397
1009 781 1398
781 578 1398
1223 1009 1398
1185 390 1399
753 1224 1399
605 931 1400
931 431 1400
431 289 1400
1228 605 1400
1028 811 1401
1036 438 1402
438 1203 1402
1203 948 1402
330 1127 1403
1127 227 1403
227 1249 1403
1249 666 1403
666 954 1403
954 330 1403
206 301 1404
301 673 1404
673 878 1404
878 462 1404
553 994 1405
994 397 1405
709 1085 1405
1085 553 1405
469 885 1406
885 190 1406
190 710 1406
710 1106 1406
1106 469 1406
606 1089 1407
1089 372 1407
810 606 1407
429 605 1408
288 869 1408
869 429 1408
169 687 1409
687 328 1409
328 496 1409
496 892 1409
892 169 1409
505 1259 1410
725 341 1410
341 895 1410
895 505 1410
906 1290 1411
1290 533 1411
578 781 1412
781 577 1412
577 918 1412
783 571 1413
571 919 1413
919 579 1413
399 816 1414
816 1158 1414
1158 613 1414
631 1238 1415
1238 836 1415
836 398 1415
398 945 1415
722 318 1416
318 872 1416
872 222 1416
222 319 1416
319 975 1416
975 722 1416
249 730 1417
514 980 1417
980 249 1417
266 988 1418
988 542 1418
558 758 1419
758 1266 1419
1266 267 1419
267 750 1419
750 991 1419
991 558 1419
512 1213 1420
1213 760 1420
760 996 1420
996 352 1420
352 1105 1420
1105 512 1420
566 1220 1421
1220 995 1421
771 404 1422
768 1330 1422
1330 1006 1422
1006 771 1422
569 772 1423
1268 561 1423
561 1331 1423
1331 1007 1423
1007 569 1423
545 1334 1424
1334 1011 1424
405 1333 1425
1333 778 1425
778 576 1425
576 1012 1425
1012 1222 1425
1222 405 1425
277 775 1426
573 1223 1426
1223 1013 1426
1013 277 1426
615 1336 1427
1336 1014 1427
794 588 1428
588 1226 1428
1226 1018 1428
922 587 1429
799 590 1430
590 1147 1430
1147 412 1430
1021 1339 1430
1339 799 1430
443 1170 1431
1170 840 1431
840 632 1431
632 1022 1431
1022 1308 1431
1308 443 1431
601 805 1432
805 1171 1432
1171 286 1432
286 1227 1432
1227 1023 1432
1023 601 1432
478 716 1433
433 814 1433
814 1031 1433
1031 478 1433
436 1032 1434
1032 619 1434
617 1391 1435
1391 1034 1435
1034 1344 1435
1344 820 1435
622 1162 1436
1162 826 1436
826 1040 1436
1040 1348 1436
1348 622 1436
435 934 1437
934 830 1437
1041 1229 1437
1229 435 1437
593 801 1438
801 1168 1438
1168 281 1438
281 1237 1438
1237 1043 1438
1043 593 1438
637 1310 1439
1310 844 1439
1052 427 1439
427 1172 1439
1172 637 1439
1057 1360 1440
1360 639 1440
446 1061 1441
1061 854 1441
1062 1363 1441
859 1246 1442
1246 1063 1442
648 860 1443
860 628 1443
1064 648 1443
225 953 1444
953 324 1444
324 664 1444
664 1253 1444
1253 322 1444
322 1067 1444
1067 225 1444
270 753 1445
753 1399 1445
1399 390 1445
390 1068 1445
1068 270 1445
305 981 1446
981 479 1446
479 1365 1446
1365 1073 1446
486 890 1447
890 228 1447
228 665 1447
665 327 1447
327 1074 1447
1074 486 1447
668 955 1448
955 231 1448
231 1077 1448
652 307 1449
307 528 1449
528 982 1449
982 372 1449
372 1089 1449
1089 1368 1449
1368 652 1449
373 983 1450
983 737 1450
737 529 1450
529 1095 1450
1095 373 1450
376 868 1451
868 242 1451
242 1370 1451
1370 1096 1451
1096 376 1451
863 308 1452
308 653 1452
653 180 1452
180 1103 1452
1103 863 1452
574 1292 1453
1292 916 1453
916 402 1453
402 1111 1453
382 1374 1454
1374 913 1454
913 1190 1454
1190 539 1454
539 745 1454
1119 382 1454
537 744 1455
744 381 1455
381 1323 1455
583 789 1456
789 278 1456
278 752 1456
752 1126 1456
1126 583 1456
756 555 1457
555 937 1457
937 612 1457
612 1128 1457
1128 756 1457
1131 563 1458
404 1000 1459
1132 404 1459
568 998 1460
998 401 1460
401 1137 1460
1138 762 1461
575 779 1462
779 407 1462
407 776 1462
776 1139 1462
1139 575 1462
793 1297 1463
1297 408 1463
408 1016 1463
1016 787 1463
787 1377 1463
1377 1145 1463
1145 793 1463
279 791 1464
1337 585 1464
1146 279 1464
594 1236 1465
1236 1019 1465
1019 1338 1465
1338 1149 1465
1149 594 1465
812 1030 1466
1030 379 1466
535 1155 1466
1155 812 1466
607 815 1467
1157 433 1467
433 1299 1467
1299 607 1467
557 1220 1468
1220 1003 1468
1003 1379 1468
1379 1158 1468
1158 816 1468
437 1380 1469
1380 1160 1469
1160 824 1469
621 825 1470
1161 621 1470
827 623 1471
623 1358 1471
1358 1055 1471
1055 439 1471
439 1163 1471
1163 827 1471
623 941 1472
1164 623 1472
1054 1360 1473
1360 642 1473
642 1053 1473
1053 1173 1473
200 939 1474
939 1304 1474
1304 847 1474
1174 200 1474
1063 646 1475
646 1204 1475
1204 857 1475
1045 833 1476
833 629 1476
1180 441 1476
441 1351 1476
1351 1045 1476
1017 1225 1477
1225 581 1477
1185 1399 1477
1399 1017 1477
893 497 1478
497 329 1478
329 173 1478
173 1186 1478
1186 893 1478
1233 645 1479
1196 616 1479
616 1345 1479
1345 1036 1479
943 626 1480
626 858 1480
1199 943 1480
667 332 1481
332 182 1481
1200 667 1481
843 636 1482
636 947 1482
1202 843 1482
818 1035 1483
1035 615 1483
948 1203 1483
1203 818 1483
763 236 1484
236 670 1484
670 956 1484
956 1206 1484
1206 763 1484
381 744 1485
744 538 1485
538 743 1485
743 985 1485
985 1215 1485
1215 381 1485
277 1013 1486
1013 782 1486
782 1327 1486
1327 1218 1486
1218 1397 1486
1397 277 1486
572 1008 1487
1001 1327 1487
1327 572 1487
271 1144 1488
1144 410 1488
410 1337 1488
1224 271 1488
796 924 1489
924 413 1489
413 1226 1489
1226 1019 1489
289 930 1490
930 1298 1490
1298 604 1490
604 1026 1490
1026 1228 1490
1228 1400 1490
1400 289 1490
1002 403 1491
403 1232 1491
1232 1328 1491
1328 1002 1491
292 1392 1492
1392 855 1492
855 644 1492
644 1235 1492
850 635 1493
635 1309 1493
1309 843 1493
843 1051 1493
1051 1242 1493
1242 850 1493
655 1091 1494
1091 311 1494
311 889 1494
889 1250 1494
1250 655 1494
1092 482 1495
482 888 1495
888 215 1495
215 493 1495
493 1252 1495
1252 1092 1495
394 1069 1496
1069 274 1496
274 688 1496
688 1100 1496
1100 551 1496
551 1256 1496
1256 394 1496
748 541 1497
541 914 1497
914 382 1497
382 1265 1497
1265 748 1497
770 1329 1498
1329 1135 1498
1267 770 1498
401 979 1499
979 562 1499
562 1268 1499
408 785 1500
785 1015 1500
1015 583 1500
583 1270 1500
608 1029 1501
811 1154 1501
1154 434 1501
434 1272 1501
1272 608 1501
883 196 1502
196 1148 1502
1148 798 1502
798 1283 1502
1283 883 1502
472 714 1503
714 261 1503
261 526 1503
526 905 1503
905 1289 1503
1289 472 1503
279 1143 1504
1143 582 1504
582 920 1504
920 1295 1504
1295 279 1504
378 935 1505
935 610 1505
610 934 1505
934 1300 1505
182 838 1506
838 1169 1506
1307 182 1506
984 741 1507
741 187 1507
187 540 1507
540 1318 1507
1318 984 1507
559 1005 1508
1005 769 1508
769 1134 1508
1323 559 1508
604 846 1509
846 1173 1509
1173 638 1509
638 1027 1509
1027 1341 1509
1341 604 1509
850 1056 1510
1056 293 1510
293 1241 1510
1241 1050 1510
1050 1355 1510
1355 850 1510
1086 689 1511
689 391 1511
391 548 1511
548 1366 1511
1366 1086 1511
458 235 1512
235 724 1512
724 1110 1512
1110 1372 1512
1372 458 1512
1150 425 1513
425 693 1513
693 233 1513
233 1378 1513
1378 1150 1513
627 1165 1514
1165 1381 1514
1381 831 1514
688 395 1515
395 1210 1515
1210 966 1515
966 1211 1515
1211 1396 1515
1396 688 1515
595 1167 1517
1167 275 1517
275 709 1517
709 1405 1517
1405 397 1517
397 926 1517
926 595 1517
166 1368 1518
1368 1089 1518
1089 606 1518
606 932 1518
400 1134 1519
1134 769 1519
769 567 1519
567 1004 1519
412 690 1520
690 586 1520
586 800 1520
800 1021 1520
1021 1430 1520
1430 412 1520
830 625 1521
625 1347 1521
1347 829 1521
829 1041 1521
1041 1437 1521
1437 830 1521
844 1171 1522
1171 602 1522
602 287 1522
287 1052 1522
1052 1439 1522
1439 844 1522
848 1060 1523
1060 445 1523
445 851 1523
851 1057 1523
1057 1440 1523
1440 848 1523
854 1244 1524
1244 644 1524
644 855 1524
855 1062 1524
1062 1441 1524
1441 854 1524
628 1353 1525
1353 839 1525
1064 1443 1525
1443 628 1525
462 246 1526
246 476 1526
476 1072 1526
1072 206 1526
206 1404 1526
1404 462 1526
880 208 1527
208 480 1527
480 305 1527
305 1446 1527
1446 1073 1527
1073 880 1527
169 892 1528
892 326 1528
326 1249 1528
1249 553 1528
553 1085 1528
1085 169 1528
976 725 1529
725 1111 1529
1111 402 1529
354 731 1530
731 1113 1530
1113 514 1530
1130 354 1530
762 1268 1531
1268 562 1531
562 1131 1531
566 1421 1532
1421 768 1532
768 1422 1532
1422 404 1532
404 1132 1532
1132 1375 1532
1375 566 1532
991 750 1533
750 992 1533
992 1323 1533
1323 1508 1533
1508 1134 1533
1134 991 1533
760 997 1534
997 560 1534
560 1267 1534
1267 1498 1534
1498 1135 1534
1135 760 1534
402 916 1535
916 573 1535
573 1426 1535
1426 775 1535
775 1138 1535
1138 1461 1535
1461 402 1535
239 570 1536
570 1333 1536
1333 405 1536
405 777 1536
777 1140 1536
1140 239 1536
576 780 1537
780 577 1537
577 781 1537
781 1141 1537
1141 576 1537
278 789 1538
789 580 1538
580 784 1538
784 1142 1538
1142 278 1538
585 921 1539
921 1296 1539
1296 1146 1539
1146 1464 1539
1464 585 1539
794 1428 1540
1428 1018 1540
279 1146 1540
1146 794 1540
589 1366 1541
1366 272 1541
1147 589 1541
592 925 1542
925 594 1542
594 1149 1542
1149 799 1542
799 1339 1542
1339 592 1542
1026 809 1543
809 1152 1543
1152 288 1543
810 1407 1544
680 960 1544
960 264 1544
264 1153 1544
1153 810 1544
620 1038 1545
1038 437 1545
437 1469 1545
1469 824 1545
824 1161 1545
1161 1470 1545
1470 620 1545
622 828 1546
1162 622 1546
835 630 1547
630 944 1547
944 281 1547
281 1168 1547
1168 835 1547
632 840 1548
1169 632 1548
639 1234 1549
1234 1037 1549
1037 439 1549
439 1175 1549
1175 848 1549
848 1440 1549
1440 639 1549
1020 197 1550
197 1178 1550
629 1382 1551
1382 834 1551
834 628 1551
628 1180 1551
1180 1476 1551
1476 629 1551
581 786 1552
786 1324 1552
1324 195 1552
195 881 1552
881 1185 1552
1185 1477 1552
1477 581 1552
557 1468 1553
1468 816 1553
816 399 1553
399 1191 1553
1191 1389 1553
1389 557 1553
782 578 1554
620 1470 1555
1470 825 1555
825 1039 1555
1039 1347 1555
1347 625 1555
625 1198 1555
1198 1393 1555
1393 620 1555
858 1274 1556
1274 197 1556
1199 1480 1556
1480 858 1556
947 637 1557
637 1172 1557
1172 845 1557
845 444 1557
444 1202 1557
1202 1482 1557
1482 947 1557
242 868 1558
1208 242 1558
512 1260 1559
1260 728 1559
728 978 1559
978 1213 1559
1213 512 1559
564 1376 1560
1376 765 1560
765 1459 1560
1459 1000 1560
291 827 1561
827 1163 1561
1163 619 1561
619 1032 1561
1032 1230 1561
1230 291 1561
1035 818 1562
818 1344 1562
1344 1034 1562
1034 614 1562
614 1232 1562
415 796 1563
796 1489 1563
1489 1019 1563
1019 1236 1563
1236 415 1563
1043 1237 1564
1237 627 1564
627 1514 1564
1514 831 1564
184 917 1565
917 574 1565
541 1120 1566
1120 746 1566
746 267 1566
267 1266 1566
582 1016 1567
1016 408 1567
408 1500 1567
1500 1270 1567
1270 582 1567
859 1442 1568
1442 647 1568
1275 859 1568
534 742 1569
742 1189 1569
1189 380 1569
1277 534 1569
812 1155 1570
1155 378 1570
378 1505 1570
1505 1300 1570
1300 609 1570
935 539 1571
539 1190 1571
1190 756 1571
1306 935 1571
806 1023 1572
1023 1227 1572
1119 1454 1573
1454 745 1573
745 1319 1573
1319 986 1573
938 1303 1574
766 1002 1574
1002 1328 1574
1328 938 1574
775 277 1575
277 1397 1575
1397 773 1575
773 1007 1575
1007 1331 1575
1331 775 1575
576 778 1576
1424 1011 1576
1335 576 1576
791 1225 1577
1225 1017 1577
1337 1464 1577
1464 791 1577
611 814 1578
814 1157 1578
1157 1467 1578
1467 815 1578
815 1343 1578
1343 611 1578
640 1385 1579
1385 849 1579
622 1348 1579
1056 850 1580
850 1242 1580
1242 641 1580
641 852 1580
852 1359 1580
1359 1056 1580
856 1246 1581
1246 446 1581
446 1441 1581
1441 1363 1581
1363 856 1581
929 601 1582
601 1150 1582
1150 1378 1582
1378 929 1582
535 1466 1583
1466 379 1583
379 907 1583
907 1388 1583
1388 535 1583
617 1231 1584
1231 821 1584
821 1195 1584
1195 1391 1584
1391 617 1584
1197 940 1585
940 1196 1585
1392 1197 1585
1229 624 1586
624 1472 1586
1472 941 1586
1401 1229 1586
1233 1479 1587
1479 1036 1587
1036 1402 1587
1402 1516 1587
533 984 1588
984 1318 1588
1318 377 1588
377 961 1588
961 681 1588
681 1411 1588
1411 533 1588
613 817 1589
817 612 1589
1414 613 1589
857 1204 1590
1204 948 1590
948 1483 1590
1483 615 1590
615 1427 1590
1427 857 1590
619 822 1591
822 1234 1591
1234 618 1591
618 1304 1591
1304 436 1591
436 1434 1591
1434 619 1591
1077 498 1592
498 894 1592
894 232 1592
232 668 1592
668 1448 1592
1448 1077 1592
1323 992 1593
992 544 1593
544 1125 1593
1125 537 1593
537 1455 1593
1455 1323 1593
563 1206 1594
1206 956 1594
956 1314 1594
1314 976 1594
976 1458 1594
1458 563 1594
1137 771 1595
771 1006 1595
1006 568 1595
568 1460 1595
1460 1137 1595
1473 1173 1596
1274 858 1597
1179 1475 1597
1475 857 1597
182 1307 1598
1307 945 1598
945 1200 1598
1200 1481 1598
1481 182 1598
1008 1332 1599
1332 403 1599
403 1002 1599
1002 1219 1599
1219 1001 1599
1001 1487 1599
1487 1008 1599
1040 292 1600
292 1492 1600
1492 1235 1600
761 1130 1601
1130 1530 1601
1530 514 1601
514 1417 1601
1417 730 1601
825 621 1602
621 826 1602
826 1162 1602
624 1041 1603
1041 829 1603
1164 1472 1603
1472 624 1603
633 841 1604
841 1049 1604
1049 634 1604
634 1548 1604
1548 840 1604
840 1170 1604
1170 1384 1604
1384 633 1604
642 1360 1605
1360 1057 1605
1057 851 1605
851 1176 1605
1176 642 1605
1014 783 1606
783 1550 1606
1550 1178 1606
1178 1427 1606
1427 1014 1606
918 1293 1607
1293 784 1607
784 406 1607
406 774 1607
774 1192 1607
819 1336 1608
1336 1035 1608
1035 1562 1608
1562 1232 1608
1232 403 1608
403 1332 1608
1332 819 1608
1111 725 1609
725 1410 1609
1410 1259 1609
758 556 1610
556 914 1610
914 541 1610
541 1566 1610
1566 1266 1610
1266 758 1610
560 761 1611
761 998 1611
998 568 1611
568 1267 1611
1267 560 1611
807 1024 1612
1024 602 1612
602 1171 1612
1171 805 1612
805 1271 1612
1271 807 1612
433 1433 1613
1433 716 1613
716 166 1613
166 1518 1613
1518 932 1613
932 1299 1613
1299 433 1613
634 1049 1614
1049 1354 1614
1354 631 1614
631 1415 1614
1415 945 1614
945 1307 1614
745 539 1615
539 935 1615
935 378 1615
378 1319 1615
1319 745 1615
786 409 1616
409 1126 1616
1126 752 1616
752 993 1616
993 1324 1616
1324 786 1616
1011 1334 1617
1334 752 1617
752 278 1617
278 780 1617
780 1335 1617
1335 1576 1617
1576 1011 1617
1017 1399 1618
1399 1224 1618
1224 1488 1618
1488 1337 1618
1337 1577 1618
1577 1017 1618
1021 800 1619
800 1283 1619
1283 592 1619
592 1339 1619
1339 1021 1619
1030 812 1620
812 1570 1620
1570 609 1620
609 933 1620
933 1342 1620
1342 1030 1620
1235 853 1621
853 1060 1621
1060 640 1621
640 1579 1621
1579 1348 1621
1348 1040 1621
1040 1600 1621
1600 1235 1621
416 593 1622
593 1043 1622
1043 1564 1622
1564 831 1622
831 1349 1622
1349 416 1622
647 1179 1623
1179 1597 1623
1597 858 1623
858 1350 1623
1350 647 1623
828 622 1624
622 1579 1624
1579 849 1624
849 1055 1624
1055 1358 1624
1358 828 1624
861 1243 1625
1243 643 1625
643 854 1625
854 1061 1625
1061 1362 1625
1362 861 1625
1132 1459 1626
767 1375 1626
1375 1132 1626
1189 266 1627
266 1418 1627
1418 986 1627
986 535 1627
535 1388 1627
1388 1189 1627
1191 915 1628
915 558 1628
558 759 1628
759 1389 1628
1389 1191 1628
1196 1479 1629
1479 645 1629
645 1363 1629
1363 1062 1629
1062 855 1629
855 1392 1629
1392 1585 1629
1585 1196 1629
578 782 1630
782 1013 1630
1013 1223 1630
1223 1398 1630
1398 578 1630
941 827 1631
827 291 1631
291 1028 1631
1028 1401 1631
1401 1586 1631
1586 941 1631
681 1096 1632
1096 1370 1632
1370 243 1632
243 906 1632
906 1411 1632
1411 681 1632
400 1519 1633
1519 1004 1633
1004 768 1633
768 1421 1633
778 1333 1634
1333 1010 1634
1424 1576 1634
1576 778 1634
587 797 1635
1429 587 1635
820 1160 1636
1160 1380 1636
1380 617 1636
617 1435 1636
1435 820 1636
976 1529 1637
1529 402 1637
402 1461 1637
1461 762 1637
762 1531 1637
1531 1131 1637
1131 1458 1637
1458 976 1637
1268 1423 1638
1423 772 1638
1499 1268 1638
1402 948 1639
948 1204 1639
1204 646 1639
646 1516 1639
1516 1402 1639
839 1241 1640
1241 293 1640
1064 1525 1640
1525 839 1640
1018 1377 1641
1377 787 1641
787 279 1641
279 1540 1641
1540 1018 1641
272 690 1642
690 412 1642
412 1147 1642
1147 1541 1642
1541 272 1642
288 1408 1643
1408 605 1643
605 1228 1643
1228 1026 1643
1026 1543 1643
1543 288 1643
1407 372 1644
372 1317 1644
1317 680 1644
680 1544 1644
1544 1407 1644
868 1277 1645
1277 1569 1645
1569 380 1645
1558 868 1645
1000 1217 1646
1217 773 1646
773 564 1646
564 1560 1646
1560 1000 1646
647 1044 1647
1044 441 1647
441 1275 1647
1275 1568 1647
1568 647 1647
756 1128 1648
1128 194 1648
194 1393 1648
1393 942 1648
942 1306 1648
1306 1571 1648
1571 756 1648
1227 636 1649
636 1309 1649
1309 946 1649
946 1308 1649
1572 1227 1649
1303 565 1650
565 1133 1650
1133 1376 1650
1376 766 1650
766 1574 1650
1574 1303 1650
612 937 1651
937 1302 1651
1302 399 1651
399 1414 1651
1414 1589 1651
1589 612 1651
1173 846 1652
846 1174 1652
1596 1173 1652
857 1427 1653
1427 1178 1653
1178 197 1653
197 1274 1653
1274 1597 1653
1597 857 1653
811 1501 1654
1501 1029 1654
1029 1229 1654
1229 1401 1654
1401 811 1654
1010 268 1655
268 1083 1655
1083 545 1655
545 1424 1655
1424 1634 1655
1634 1010 1655
1020 1550 1656
1550 783 1656
783 1413 1656
1413 579 1656
579 1194 1656
1194 922 1656
922 1429 1656
1429 1635 1656
1635 1020 1656
1063 1475 1657
1475 1179 1657
1179 647 1657
647 1442 1657
1442 1063 1657
1169 1548 1658
1548 634 1658
634 1614 1658
1614 1307 1658
1307 1506 1658
1506 1169 1658
856 1363 1659
1363 1233 1659
1233 1587 1659
1587 1516 1659
578 1412 1660
1412 918 1660
918 1607 1660
1607 1192 1660
1554 578 1660
197 1020 1661
1020 1635 1661
1635 797 1661
797 1394 1661
1394 1199 1661
1199 1556 1661
1556 197 1661
380 1097 1662
1097 682 1662
1558 1645 1662
1645 380 1662
1259 1079 1663
1079 184 1663
184 1565 1663
1609 1259 1663
1308 1022 1664
1022 806 1664
806 1572 1664
1572 1649 1664
1649 1308 1664
986 1418 1665
1418 542 1665
542 1265 1665
1265 1119 1665
1119 1573 1665
1573 986 1665
1174 1474 1666
1474 847 1666
847 1234 1666
1234 1054 1666
1054 1473 1666
1473 1596 1666
1596 1652 1666
1652 1174 1666
730 979 1667
979 1214 1667
1214 761 1667
761 1601 1667
1601 730 1667
1162 1546 1668
1546 440 1668
440 1039 1668
1039 825 1668
825 1602 1668
1602 1162 1668
1459 765 1669
765 1133 1669
1133 565 1669
565 1303 1669
1303 767 1669
767 1626 1669
1626 1459 1669
1421 995 1670
995 759 1670
759 1322 1670
1322 400 1670
400 1633 1670
1633 1421 1670
772 1137 1671
1137 401 1671
401 1499 1671
1499 1638 1671
1638 772 1671
293 1056 1672
1056 1243 1672
1243 861 1672
861 1064 1672
1064 1640 1672
1640 293 1672
646 1063 1673
1063 1246 1673
1246 856 1673
856 1659 1673
1659 1516 1673
1516 646 1673
1192 572 1674
572 1327 1674
1327 782 1674
782 1554 1674
1554 1660 1674
1660 1192 1674
963 345 1675
345 1208 1675
1208 1558 1675
829 440 1676
440 1546 1676
1546 828 1676
828 1164 1676
1164 1603 1676
1603 829 1676
1565 574 1677
574 1453 1677
1453 1111 1677
1111 1609 1677
1609 1663 1677
1663 1565 1677
1558 1662 1678
1662 682 1678
682 1209 1678
1209 963 1678
963 1675 1678
1675 1558 1678

2.500000e-02 0.000000e+00 0
5.000000e-02 0.000000e+00 1
7.500000e-02 0.000000e+00 2
1.000000e-01 0.000000e+00 3
1.250000e-01 0.000000e+00 4
1.500000e-01 0.000000e+00 5
1.750000e-01 0.000000e+00 6
2.000000e-01 0.000000e+00 7
2.250000e-01 0.000000e+00 8
2.500000e-01 0.000000e+00 9
2.750000e-01 0.000000e+00 10
3.000000e-01 0.000000e+00 11
3.250000e-01 0.000000e+00 12
3.500000e-01 0.000000e+00 13
3.750000e-01 0.000000e+00 14
4.000000e-01 0.000000e+00 15
4.250000e-01 0.000000e+00 16
4.500000e-01 0.000000e+00 17
4.750000e-01 0.000000e+00 18
5.000000e-01 0.000000e+00 19
5.250000e-01 0.000000e+00 20
5.500000e-01 0.000000e+00 21
5.750000e-01 0.000000e+00 22
6.000000e-01 0.000000e+00 23
6.250000e-01 0.000000e+00 24
6.500000e-01 0.000000e+00 25
6.750000e-01 0.000000e+00 26
7.000000e-01 0.000000e+00 27
7.250000e-01 0.000000e+00 28
7.500000e-01 0.000000e+00 29
7.750000e-01 0.000000e+00 30
8.000000e-01 0.000000e+00 31
8.250000e-01 0.000000e+00 32
8.500000e-01 0.000000e+00 33
8.750000e-01 0.000000e+00 34
9.000000e-01 0.000000e+00 35
9.250000e-01 0.000000e+00 36
9.500000e-01 0.000000e+00 37
9.750000e-01 0.000000e+00 38
1.000000e+00 0.000000e+00 159
1.000000e+00 2.500000e-02 158
1.000000e+00 5.000000e-02 157
1.000000e+00 7.500000e-02 156
1.000000e+00 1.000000e-01 155
1.000000e+00 1.250000e-01 154
1.000000e+00 1.500000e-01 153
1.000000e+00 1.750000e-01 152
1.000000e+00 2.000000e-01 151
1.000000e+00 2.250000e-01 150
1.000000e+00 2.500000e-01 149
1.000000e+00 2.750000e-01 148
1.000000e+00 3.000000e-01 147
1.000000e+00 3.250000e-01 146
1.000000e+00 3.500000e-01 145
1.000000e+00 3.750000e-01 144
1.000000e+00 4.000000e-01 143
1.000000e+00 4.250000e-01 142
1.000000e+00 4.500000e-01 141
1.000000e+00 4.750000e-01 140
1.000000e+00 5.000000e-01 139
1.000000e+00 5.250000e-01 138
1.000000e+00 5.500000e-01 137
1.000000e+00 5.750000e-01 136
1.000000e+00 6.000000e-01 135
1.000000e+00 6.250000e-01 134
1.000000e+00 6.500000e-01 133
1.000000e+00 6.750000e-01 132
1.000000e+00 7.000000e-01 131
1.000000e+00 7.250000e-01 130
1.000000e+00 7.500000e-01 129
1.000000e+00 7.750000e-01 128
1.000000e+00 8.000000e-01 127
1.000000e+00 8.250000e-01 126
1.000000e+00 8.500000e-01 125
1.000000e+00 8.750000e-01 124
1.000000e+00 9.000000e-01 123
1.000000e+00 9.250000e-01 122
1.000000e+00 9.500000e-01 121
1.000000e+00 9.750000e-01 120
1.000000e+00 1.000000e+00 119
9.750000e-01 1.000000e+00 80
9.500000e-01 1.000000e+00 81
9.250000e-01 1.000000e+00 82
9.000000e-01 1.000000e+00 83
8.750000e-01 1.000000e+00 84
8.500000e-01 1.000000e+00 85
8.250000e-01 1.000000e+00 86
8.000000e-01 1.000000e+00 87
7.750000e-01 1.000000e+00 88
7.500000e-01 1.000000e+00 89
7.250000e-01 1.000000e+00 90
7.000000e-01 1.000000e+00 91
6.750000e-01 1.000000e+00 92
6.500000e-01 1.000000e+00 93
6.250000e-01 1.000000e+00 94
6.000000e-01 1.000000e+00 95
5.750000e-01 1.000000e+00 96
5.500000e-01 1.000000e+00 97
5.250000e-01 1.000000e+00 98
5.000000e-01 1.000000e+00 99
4.750000e-01 1.000000e+00 100
4.500000e-01 1.000000e+00 101
4.250000e-01 1.000000e+00 102
4.000000e-01 1.000000e+00 103
3.750000e-01 1.000000e+00 104
3.500000e-01 1.000000e+00 105
3.250000e-01 1.000000e+00 106
3.000000e-01 1.000000e+00 107
2.750000e-01 1.000000e+00 108
2.500000e-01 1.000000e+00 109
2.250000e-01 1.000000e+00 110
2.000000e-01 1.000000e+00 111
1.750000e-01 1.000000e+00 112
1.500000e-01 1.000000e+00 113
1.250000e-01 1.000000e+00 114
1.000000e-01 1.000000e+00 115
7.500000e-02 1.000000e+00 116
5.000000e-02 1.000000e+00 117
2.500000e-02 1.000000e+00 118
0.000000e+00 1.000000e+00 79
0.000000e+00 9.750000e-01 78
0.000000e+00 9.500000e-01 77
0.000000e+00 9.250000e-01 76
0.000000e+00 9.000000e-01 75
0.000000e+00 8.750000e-01 74
0.000000e+00 8.500000e-01 73
0.000000e+00 8.250000e-01 72
0.000000e+00 8.000000e-01 71
0.000000e+00 7.750000e-01 70
0.000000e+00 7.500000e-01 69
0.000000e+00 7.250000e-01 68
0.000000e+00 7.000000e-01 67
0.000000e+00 6.750000e-01 66
0.000000e+00 6.500000e-01 65
0.000000e+00 6.250000e-01 64
0.000000e+00 6.000000e-01 63
0.000000e+00 5.750000e-01 62
0.000000e+00 5.500000e-01 61
0.000000e+00 5.250000e-01 60
0.000000e+00 5.000000e-01 59
0.000000e+00 4.750000e-01 58
0.000000e+00 4.500000e-01 57
0.000000e+00 4.250000e-01 56
0.000000e+00 4.000000e-01 55
0.000000e+00 3.750000e-01 54
0.000000e+00 3.500000e-01 53
0.000000e+00 3.250000e-01 52
0.000000e+00 3.000000e-01 51
0.000000e+00 2.750000e-01 50
0.000000e+00 2.500000e-01 49
0.000000e+00 2.250000e-01 48
0.000000e+00 2.000000e-01 47
0.000000e+00 1.750000e-01 46
0.000000e+00 1.500000e-01 45
0.000000e+00 1.250000e-01 44
0.000000e+00 1.000000e-01 43
0.000000e+00 7.500000e-02 42
0.000000e+00 5.000000e-02 41
0.000000e+00 2.500000e-02 40
0.000000e+00 0.000000e+00 39
1.538916e-01 7.541085e-02 160
2.778328e-01 8.551794e-01 161
7.399007e-01 1.295759e-01 162
1.317236e-01 2.597976e-01 163
2.609570e-01 1.267586e-01 164
8.631734e-01 2.733070e-01 165
1.451603e-01 7.079671e-01 166
9.762375e-01 9.605147e-01 167
7.774313e-01 8.899884e-01 168
8.829301e-01 7.762723e-01 169
6.801780e-02 1.389356e-01 170
1.083519e-01 2.065861e-01 171
8.881281e-01 9.509414e-01 172
9.355356e-01 8.943657e-01 173
5.543314e-02 8.717472e-01 174
1.215090e-01 9.292288e-01 175
2.096053e-01 1.008955e-01 176
4.333529e-02 7.729437e-02 177
9.195219e-01 4.637377e-02 178
7.231636e-02 3.195093e-02 179
8.425394e-01 9.269017e-01 180
9.190456e-01 8.435915e-01 181
7.106681e-01 8.601624e-01 182
2.053164e-01 8.907690e-01 183
6.892797e-01 1.603012e-01 184
9.724319e-01 7.623775e-02 185
7.422395e-02 9.586670e-01 186
1.669463e-01 3.306728e-01 187
3.258073e-01 1.582931e-01 188
3.146773e-02 9.260991e-01 189
8.872162e-01 2.267258e-01 190
7.886352e-01 1.092613e-01 191
8.562918e-01 7.247088e-01 192
1.037027e-01 7.922401e-01 193
3.334202e-01 5.017255e-01 194
8.398338e-01 3.242736e-01 195
8.303561e-01 6.781196e-01 196
6.628681e-01 4.994179e-01 197
9.182409e-01 1.773017e-01 198
8.611752e-01 7.224249e-02 199
3.237090e-01 8.309935e-01 200
9.409408e-01 1.238057e-01 201
1.412008e-01 2.533514e-02 202
3.003514e-01 9.562264e-01 203
7.048702e-01 4.618642e-02 204
4.605932e-02 2.932455e-01 205
2.641581e-01 4.748104e-02 206
9.526690e-01 2.873673e-01 207
4.890125e-02 7.114338e-01 208
4.795158e-02 6.454945e-01 209
7.820335e-01 9.666360e-01 210
9.613197e-01 7.515836e-01 211
2.120267e-02 1.706279e-01 212
1.653163e-01 2.040127e-01 213
7.897715e-02 2.382483e-01 214
1.086999e-01 1.376064e-01 215
9.278115e-01 9.675955e-01 216
9.795366e-01 8.705214e-01 217
9.765785e-01 9.269213e-01 218
2.147561e-02 8.846686e-01 219
1.509850e-01 9.792725e-01 220
1.863575e-01 5.417603e-02 221
1.892959e-01 1.441928e-01 222
3.959592e-02 1.184248e-01 223
3.932195e-02 2.043280e-02 224
9.075651e-02 6.223667e-02 225
8.634583e-01 9.617848e-01 226
8.508491e-01 8.347992e-01 227
9.325328e-01 8.048235e-01 228
9.051250e-01 8.865841e-01 229
8.375861e-01 8.853632e-01 230
7.405899e-01 9.207962e-01 231
6.910659e-01 9.488348e-01 232
6.296862e-01 9.505243e-01 233
2.572278e-01 9.104970e-01 234
2.250334e-01 9.624152e-01 235
5.724824e-01 5.205941e-02 236
6.237591e-01 4.854424e-02 237
6.997080e-01 1.006673e-01 238
7.671301e-01 1.868755e-01 239
9.758331e-01 3.800350e-02 240
8.020260e-02 9.171962e-01 241
5.691769e-02 4.341847e-01 242
5.058124e-02 3.828939e-01 243
1.010266e-01 3.033199e-01 244
2.411356e-01 1.815502e-01 245
3.026657e-01 9.064652e-02 246
3.317351e-01 5.714856e-02 247
4.041057e-01 4.980583e-02 248
5.032966e-01 1.054323e-01 249
2.031846e-01 2.501781e-01 250
1.746022e-02 9.656657e-01 251
9.645437e-01 2.363695e-01 252
8.318473e-01 2.086414e-01 253
7.648451e-01 8.154389e-02 254
7.876869e-01 2.938710e-02 255
8.103464e-01 1.545256e-01 256
9.520692e-01 7.027698e-01 257
7.787866e-01 8.247030e-01 258
3.338164e-02 8.089817e-01 259
1.672574e-01 7.878346e-01 260
1.915787e-01 8.483833e-01 261
1.446573e-01 8.736524e-01 262
9.339137e-02 8.627327e-01 263
1.601844e-01 5.871414e-01 264
1.092035e-01 5.261035e-01 265
1.659056e-01 4.388955e-01 266
2.708162e-01 3.258290e-01 267
8.025636e-01 2.490840e-01 268
9.041780e-01 3.073912e-01 269
9.427768e-01 3.360480e-01 270
9.461387e-01 3.986748e-01 271
9.477638e-01 5.691456e-01 272
9.413296e-01 6.193090e-01 273
8.904966e-01 6.913996e-01 274
7.983321e-01 7.497032e-01 275
4.478107e-01 3.819933e-01 276
5.633075e-01 2.680222e-01 277
7.333011e-01 3.303629e-01 278
8.343271e-01 4.418733e-01 279
8.380778e-01 5.543923e-01 280
7.336614e-01 6.816678e-01 281
9.722355e-01 1.884152e-01 282
8.706935e-01 1.675148e-01 283
8.444704e-01 2.460946e-02 284
8.530538e-01 1.228865e-01 285
5.146295e-01 8.958202e-01 286
4.508999e-01 9.379212e-01 287
3.826436e-01 9.441326e-01 288
3.093184e-01 8.957185e-01 289
2.468040e-01 8.070678e-01 290
2.688103e-01 6.849055e-01 291
4.408512e-01 6.155949e-01 292
5.679033e-01 7.299502e-01 293
9.448616e-01 8.304719e-02 294
9.774406e-01 1.157211e-01 295
9.041511e-01 1.204196e-01 296
8.847090e-01 9.795374e-01 297
1.194083e-01 9.767165e-01 298
7.124521e-01 1.949933e-02 299
1.729523e-02 2.911765e-01 300
2.623988e-01 2.066840e-02 301
2.380488e-01 8.826646e-02 302
9.801228e-01 2.879184e-01 303
1.538815e-02 7.128383e-01 304
9.513405e-02 7.353323e-01 305
1.657154e-02 6.385411e-01 306
7.796060e-02 6.863601e-01 307
8.036968e-01 9.276311e-01 308
6.988608e-02 1.705826e-01 309
1.337070e-01 2.156017e-01 310
2.344122e-02 2.381710e-01 311
9.509784e-01 9.746162e-01 312
9.458856e-01 8.656359e-01 313
3.973620e-02 8.986345e-01 314
1.592506e-01 9.310234e-01 315
1.651099e-01 5.691264e-02 316
2.080868e-01 1.859405e-02 317
1.848658e-01 1.073100e-01 318
1.640413e-01 1.587416e-01 319
2.434151e-02 1.436713e-01 320
2.645071e-02 4.896523e-02 321
6.916872e-02 1.066075e-01 322
1.166940e-01 2.770307e-02 323
1.199934e-01 9.729470e-02 324
8.229525e-01 9.732583e-01 325
8.861734e-01 8.159030e-01 326
9.777268e-01 7.941484e-01 327
9.235416e-01 7.794601e-01 328
9.101305e-01 9.102911e-01 329
8.656324e-01 8.749561e-01 330
7.601533e-01 9.649202e-01 331
7.402398e-01 8.880116e-01 332
6.894731e-01 9.844857e-01 333
6.344424e-01 9.800670e-01 334
6.786700e-01 9.241012e-01 335
2.483417e-01 8.867196e-01 336
2.660300e-01 9.739336e-01 337
1.828655e-01 9.794752e-01 338
5.634133e-01 2.188378e-02 339
6.151912e-01 1.917357e-02 340
6.275919e-01 8.868600e-02 341
7.133123e-01 1.254425e-01 342
6.714421e-01 6.365496e-02 343
9.544663e-01 2.504074e-02 344
2.333724e-02 4.693470e-01 345
1.850461e-02 4.159149e-01 346
2.367935e-02 3.674497e-01 347
1.309502e-01 2.990959e-01 348
6.551747e-02 3.336636e-01 349
2.629755e-01 1.554906e-01 350
3.161511e-01 1.854738e-02 351
3.209167e-01 1.047834e-01 352
3.887353e-01 2.193665e-02 353
4.105465e-01 1.056933e-01 354
4.553123e-01 5.130132e-02 355
5.111025e-01 3.581336e-02 356
1.996908e-01 2.067286e-01 357
5.033010e-02 9.747769e-01 358
9.258405e-01 2.117239e-01 359
8.645741e-01 2.403883e-01 360
7.657992e-01 1.061477e-01 361
8.121746e-01 7.264443e-02 362
7.620570e-01 3.883109e-02 363
7.691919e-01 1.597837e-01 364
9.735468e-01 7.221032e-01 365
8.047143e-01 8.678867e-01 366
3.098710e-02 8.427725e-01 367
1.397222e-01 8.219229e-01 368
1.812561e-01 8.729002e-01 369
1.032379e-01 9.092333e-01 370
8.166378e-02 8.170244e-01 371
1.147128e-01 6.475532e-01 372
5.065646e-02 5.761841e-01 373
4.352154e-02 5.379672e-01 374
1.057501e-01 5.851595e-01 375
9.534267e-02 4.174153e-01 376
1.283122e-01 3.819307e-01 377
2.255579e-01 5.076415e-01 378
1.472595e-01 5.134941e-01 379
1.133947e-01 4.698895e-01 380
2.800100e-01 2.187520e-01 381
2.545640e-01 4.195629e-01 382
2.001826e-01 3.621768e-01 383
2.151231e-01 2.978257e-01 384
8.345293e-01 2.851954e-01 385
8.040251e-01 2.122797e-01 386
9.115605e-01 2.688312e-01 387
9.824251e-01 3.355624e-01 388
9.827674e-01 3.908945e-01 389
8.996869e-01 3.453551e-01 390
9.811959e-01 5.158447e-01 391
9.808610e-01 5.782837e-01 392
9.811445e-01 6.361583e-01 393
8.842369e-01 7.325355e-01 394
8.914559e-01 6.625135e-01 395
8.281227e-01 7.163971e-01 396
8.062256e-01 8.062777e-01 397
7.557812e-01 8.096123e-01 398
3.509683e-01 4.033624e-01 399
3.511010e-01 2.916370e-01 400
4.644958e-01 1.792427e-01 401
5.932094e-01 1.818073e-01 402
5.529656e-01 3.934326e-01 403
4.469238e-01 2.738167e-01 404
7.311188e-01 2.223836e-01 405
6.531992e-01 3.733385e-01 406
6.619464e-01 2.538037e-01 407
7.442850e-01 4.262569e-01 408
8.029163e-01 3.638267e-01 409
9.271063e-01 4.407466e-01 410
9.259220e-01 4.952879e-01 411
9.079238e-01 5.778344e-01 412
7.820403e-01 4.970854e-01 413
8.671491e-01 5.183627e-01 414
7.494064e-01 5.718669e-01 415
8.009769e-01 6.373391e-01 416
7.486185e-01 7.664328e-01 417
9.783792e-01 2.099123e-01 418
9.444970e-01 1.623859e-01 419
8.340806e-01 1.756235e-01 420
8.763068e-01 2.127555e-02 421
8.178943e-01 2.434004e-02 422
8.180082e-01 1.278167e-01 423
5.491811e-01 9.706709e-01 424
6.200478e-01 9.038502e-01 425
4.744724e-01 9.849599e-01 426
4.362378e-01 8.934077e-01 427
4.068216e-01 9.804530e-01 428
3.435834e-01 9.628167e-01 429
3.016094e-01 8.698578e-01 430
2.884995e-01 9.210340e-01 431
2.372292e-01 8.394228e-01 432
1.960035e-01 7.241266e-01 433
1.856503e-01 6.568425e-01 434
2.477256e-01 5.908049e-01 435
2.793831e-01 7.652526e-01 436
4.024739e-01 4.948912e-01 437
5.136412e-01 4.991633e-01 438
3.430187e-01 7.092273e-01 439
3.428344e-01 5.962150e-01 440
6.550773e-01 6.378663e-01 441
6.673133e-01 7.565865e-01 442
5.905612e-01 8.235753e-01 443
4.686297e-01 8.218464e-01 444
4.458227e-01 7.277926e-01 445
5.599772e-01 6.161914e-01 446
9.046799e-01 6.767905e-02 447
9.538623e-01 1.078918e-01 448
8.773564e-01 1.394880e-01 449
2.968076e-02 6.796948e-01 450
1.055906e-01 2.334798e-01 451
9.649677e-01 8.963674e-01 452
2.189706e-01 1.232301e-01 453
2.372873e-02 9.454186e-02 454
6.740520e-02 5.482725e-02 455
8.634816e-01 9.842491e-01 456
8.600320e-01 9.043229e-01 457
2.323816e-01 9.282412e-01 458
7.315017e-01 1.577529e-01 459
9.390791e-02 9.354544e-01 460
7.878153e-02 2.823586e-01 461
3.002944e-01 6.438203e-02 462
7.229224e-01 7.473330e-02 463
2.949093e-02 7.597279e-01 464
8.749007e-01 3.029393e-01 465
9.349967e-01 3.101415e-01 466
8.657818e-01 6.989616e-01 467
8.468649e-01 7.518880e-01 468
8.878176e-01 1.866897e-01 469
4.362980e-01 9.816154e-01 470
2.830745e-01 8.305060e-01 471
2.036717e-01 8.105650e-01 472
8.737737e-01 1.034040e-01 473
9.299817e-01 1.083967e-01 474
2.311835e-01 6.432779e-02 475
2.690161e-01 1.017806e-01 476
9.691019e-01 2.665935e-01 477
1.424707e-01 7.467068e-01 478
7.510626e-02 7.815984e-01 479
7.358078e-02 7.109318e-01 480
7.676178e-01 9.128346e-01 481
9.524585e-02 1.803180e-01 482
1.735855e-01 2.224924e-01 483
4.056245e-02 1.921527e-01 484
9.163390e-01 8.660367e-01 485
9.624578e-01 8.322268e-01 486
6.252161e-02 8.988060e-01 487
1.422655e-01 9.190705e-01 488
1.871396e-01 2.508205e-02 489
1.802789e-01 8.110795e-02 490
2.097046e-02 3.081324e-02 491
1.267055e-01 1.320591e-02 492
1.304465e-01 1.275222e-01 493
8.016365e-01 9.811536e-01 494
9.781929e-01 7.720492e-01 495
9.136778e-01 7.973788e-01 496
9.125647e-01 9.418518e-01 497
7.253955e-01 9.704224e-01 498
6.534988e-01 9.697782e-01 499
7.077155e-01 8.871644e-01 500
2.724958e-01 8.810939e-01 501
2.900072e-01 9.745117e-01 502
2.055495e-01 9.807884e-01 503
5.904332e-01 2.935779e-02 504
6.747295e-01 1.137043e-01 505
6.545864e-01 4.302707e-02 506
9.469126e-01 5.043023e-02 507
4.090624e-02 4.119532e-01 508
4.818875e-02 3.573574e-01 509
3.054613e-01 1.400243e-01 510
3.626721e-01 2.166920e-02 511
3.563338e-01 8.591359e-02 512
4.237561e-01 3.793872e-02 513
4.571351e-01 8.310727e-02 514
5.274221e-01 6.521934e-02 515
4.745456e-01 2.755883e-02 516
2.113032e-01 1.811603e-01 517
3.006105e-02 9.792790e-01 518
8.354965e-01 2.356238e-01 519
7.880557e-01 8.746017e-02 520
8.359657e-01 5.494454e-02 521
7.414147e-01 1.897664e-02 522
7.887594e-01 1.453566e-01 523
1.992748e-02 8.629761e-01 524
1.365086e-01 7.970487e-01 525
1.605076e-01 8.443722e-01 526
1.014748e-01 8.366927e-01 527
7.892652e-02 6.615277e-01 528
3.699970e-02 6.238961e-01 529
1.693801e-02 4.947982e-01 530
6.908989e-02 5.483824e-01 531
1.223588e-01 5.599159e-01 532
9.593774e-02 3.356744e-01 533
1.265458e-01 4.191823e-01 534
1.766004e-01 4.876809e-01 535
1.253384e-01 5.082522e-01 536
2.303235e-01 2.288313e-01 537
2.673497e-01 1.826949e-01 538
2.648851e-01 4.778729e-01 539
1.696804e-01 3.596208e-01 540
2.478097e-01 3.738839e-01 541
2.071353e-01 4.107986e-01 542
1.690173e-01 3.043209e-01 543
2.540448e-01 2.804043e-01 544
7.884368e-01 2.859034e-01 545
8.895376e-01 2.559416e-01 546
9.639848e-01 3.799703e-01 547
9.763304e-01 5.382921e-01 548
9.772106e-01 6.642255e-01 549
9.681601e-01 6.080577e-01 550
9.357779e-01 7.268390e-01 551
7.935635e-01 7.150389e-01 552
8.512375e-01 8.061882e-01 553
8.000235e-01 8.359144e-01 554
3.100115e-01 4.398739e-01 555
2.954251e-01 3.857122e-01 556
3.817788e-01 3.588916e-01 557
3.238852e-01 3.395712e-01 558
3.191582e-01 2.253131e-01 559
3.997595e-01 1.491016e-01 560
5.372109e-01 2.064035e-01 561
5.165304e-01 1.522399e-01 562
5.533917e-01 1.149447e-01 563
5.220629e-01 3.039720e-01 564
4.815794e-01 3.464537e-01 565
4.116855e-01 3.164601e-01 566
3.693571e-01 2.451337e-01 567
4.144171e-01 2.010567e-01 568
4.919201e-01 2.356444e-01 569
7.669413e-01 2.084088e-01 570
6.280015e-01 4.213517e-01 571
5.922333e-01 3.441290e-01 572
6.083355e-01 2.296814e-01 573
6.491042e-01 1.917698e-01 574
6.902467e-01 2.159428e-01 575
7.108332e-01 2.694261e-01 576
6.780139e-01 3.130689e-01 577
6.248236e-01 2.985408e-01 578
6.876287e-01 4.187913e-01 579
7.116594e-01 3.689863e-01 580
8.433632e-01 3.806067e-01 581
7.924419e-01 4.082588e-01 582
7.588223e-01 3.732737e-01 583
9.762157e-01 4.395837e-01 584
8.993632e-01 4.583073e-01 585
9.144686e-01 6.200553e-01 586
7.274832e-01 4.730305e-01 587
8.293742e-01 5.268014e-01 588
9.168853e-01 5.253794e-01 589
8.693589e-01 5.541496e-01 590
7.288875e-01 5.245140e-01 591
8.408230e-01 6.200329e-01 592
7.854737e-01 6.615756e-01 593
7.961976e-01 5.916452e-01 594
7.717492e-01 7.764261e-01 595
9.538313e-01 2.136491e-01 596
9.795719e-01 1.406341e-01 597
8.532242e-01 1.561970e-01 598
9.055883e-01 2.273779e-02 599
5.889431e-01 9.733775e-01 600
5.622059e-01 9.220832e-01 601
4.821007e-01 9.431618e-01 602
4.211489e-01 9.297480e-01 603
3.603036e-01 8.742679e-01 604
3.427949e-01 9.345028e-01 605
1.552690e-01 6.674710e-01 606
2.196325e-01 6.917329e-01 607
2.012410e-01 6.121924e-01 608
2.125329e-01 5.604296e-01 609
2.683283e-01 5.332684e-01 610
2.363122e-01 7.629414e-01 611
3.594409e-01 4.654391e-01 612
4.018975e-01 4.380302e-01 613
5.032614e-01 4.252149e-01 614
5.808955e-01 4.623399e-01 615
4.510798e-01 5.414228e-01 616
4.552229e-01 4.617568e-01 617
3.214782e-01 7.704328e-01 618
2.978010e-01 7.258992e-01 619
3.624848e-01 5.276793e-01 620
3.996549e-01 5.709107e-01 621
3.779856e-01 6.383384e-01 622
3.145347e-01 6.607552e-01 623
2.881288e-01 6.211527e-01 624
3.116456e-01 5.579887e-01 625
6.841621e-01 5.765715e-01 626
7.153232e-01 6.269121e-01 627
6.364300e-01 7.028668e-01 628
6.912707e-01 6.875124e-01 629
7.150389e-01 7.299957e-01 630
7.060556e-01 7.865643e-01 631
6.390044e-01 8.572911e-01 632
6.170071e-01 7.726266e-01 633
6.637286e-01 8.139780e-01 634
5.453614e-01 7.966778e-01 635
5.266853e-01 8.501091e-01 636
4.774879e-01 8.724440e-01 637
4.158231e-01 8.507024e-01 638
3.762519e-01 7.567751e-01 639
4.097941e-01 6.818233e-01 640
4.931824e-01 7.542238e-01 641
4.197638e-01 7.961851e-01 642
5.209071e-01 6.848148e-01 643
4.781708e-01 6.470555e-01 644
5.029185e-01 5.731870e-01 645
5.768765e-01 5.385869e-01 646
6.279620e-01 5.862313e-01 647
5.992155e-01 6.634997e-01 648
6.320798e-02 9.354825e-01 649
9.059403e-01 9.716370e-01 650
9.313750e-02 9.780761e-01 651
1.014636e-01 7.070506e-01 652
8.254236e-01 9.116630e-01 653
8.510962e-02 2.107177e-01 654
2.937451e-02 2.729264e-01 655
2.003559e-02 9.063000e-01 656
1.410677e-01 9.486946e-01 657
2.316102e-01 2.059412e-02 658
1.476669e-01 1.864835e-01 659
4.843833e-02 1.578055e-01 660
2.330802e-02 6.684065e-02 661
9.462585e-02 2.168592e-02 662
1.406447e-01 4.951233e-02 663
1.064020e-01 1.148594e-01 664
9.504507e-01 7.848022e-01 665
8.923612e-01 8.412235e-01 666
7.681999e-01 8.607186e-01 667
7.021441e-01 9.287853e-01 668
2.453237e-01 9.779362e-01 669
6.011582e-01 6.449829e-02 670
9.337524e-01 2.290664e-02 671
2.763031e-02 4.387560e-01 672
2.929282e-01 2.006278e-02 673
5.403070e-01 1.916243e-02 674
8.414917e-01 9.084755e-02 675
1.575454e-02 8.249510e-01 676
1.859449e-01 9.002294e-01 677
1.136373e-01 8.815443e-01 678
1.995381e-02 5.828151e-01 679
1.255834e-01 6.066872e-01 680
9.341876e-02 3.914386e-01 681
8.426426e-02 5.089489e-01 682
1.959499e-01 3.318456e-01 683
7.888078e-01 1.950515e-01 684
9.367227e-01 2.350694e-01 685
9.674801e-01 3.164218e-01 686
8.992748e-01 7.593042e-01 687
9.152856e-01 6.853654e-01 688
9.688377e-01 4.985939e-01 689
9.301344e-01 5.918873e-01 690
9.263780e-01 1.526734e-01 691
8.075003e-01 4.638709e-02 692
6.380951e-01 9.251928e-01 693
3.192802e-01 9.749363e-01 694
2.546777e-01 8.617674e-01 695
8.857722e-01 5.139373e-02 696
3.019797e-02 7.022719e-01 697
1.301543e-01 2.401882e-01 698
2.391536e-01 1.126554e-01 699
8.453467e-01 9.769031e-01 700
8.873875e-01 9.216915e-01 701
7.127126e-01 1.477912e-01 702
7.534743e-02 3.077909e-01 703
3.168333e-01 6.974571e-02 704
6.949957e-01 7.287434e-02 705
7.514945e-01 6.466186e-02 706
8.482813e-01 3.038400e-01 707
8.432355e-01 6.982677e-01 708
8.241741e-01 7.662055e-01 709
8.609079e-01 2.157845e-01 710
4.580589e-01 9.680455e-01 711
3.038913e-01 8.429171e-01 712
2.738733e-01 8.018797e-01 713
2.108168e-01 8.336889e-01 714
9.147442e-01 1.007343e-01 715
1.538847e-01 7.241548e-01 716
4.578137e-02 7.821856e-01 717
7.683522e-01 9.428195e-01 718
1.942196e-01 2.291565e-01 719
2.294376e-02 2.172742e-01 720
9.803093e-01 8.448949e-01 721
1.594291e-01 1.058538e-01 722
2.873026e-01 8.974411e-01 723
1.961511e-01 9.581775e-01 724
6.231110e-01 1.300891e-01 725
6.397221e-01 2.133741e-02 726
3.523649e-02 3.393477e-01 727
3.718711e-01 5.013836e-02 728
4.139798e-01 2.095826e-02 729
4.772660e-01 1.244202e-01 730
4.138774e-01 7.980228e-02 731
5.013956e-01 6.285531e-02 732
2.255877e-01 1.601392e-01 733
8.103542e-01 2.295039e-01 734
7.700070e-01 1.306469e-01 735
1.241365e-01 7.729790e-01 736
7.296860e-02 6.213339e-01 737
2.043570e-02 5.207601e-01 738
7.878549e-02 5.716462e-01 739
1.457319e-01 5.599984e-01 740
1.385928e-01 3.212064e-01 741
1.409401e-01 4.376383e-01 742
2.911209e-01 1.651901e-01 743
2.568211e-01 2.078304e-01 744
2.447944e-01 4.710406e-01 745
2.445134e-01 3.325255e-01 746
1.655745e-01 3.915641e-01 747
2.210427e-01 3.835746e-01 748
1.768997e-01 2.728962e-01 749
2.911958e-01 3.025135e-01 750
2.299639e-01 2.816733e-01 751
7.724965e-01 3.263674e-01 752
9.360363e-01 3.697458e-01 753
9.753397e-01 6.902648e-01 754
8.230836e-01 8.445783e-01 755
3.081342e-01 4.731040e-01 756
3.186974e-01 4.076486e-01 757
2.983092e-01 3.565033e-01 758
3.510124e-01 3.336870e-01 759
3.579746e-01 1.317325e-01 760
4.282181e-01 1.440036e-01 761
5.479468e-01 1.838289e-01 762
5.540846e-01 7.317711e-02 763
5.265549e-01 1.232841e-01 764
4.848611e-01 3.151124e-01 765
5.191778e-01 3.532465e-01 766
4.429354e-01 3.481770e-01 767
4.011600e-01 2.781712e-01 768
3.450144e-01 2.539066e-01 769
3.671073e-01 2.011055e-01 770
4.450077e-01 2.414944e-01 771
4.932340e-01 2.099696e-01 772
5.212979e-01 2.731884e-01 773
6.249097e-01 3.732150e-01 774
5.647476e-01 2.386554e-01 775
6.390207e-01 2.336258e-01 776
7.170246e-01 2.007183e-01 777
7.402323e-01 2.573208e-01 778
6.896543e-01 2.447916e-01 779
7.099279e-01 3.041478e-01 780
6.562303e-01 2.852270e-01 781
5.950954e-01 3.030316e-01 782
6.542750e-01 4.468394e-01 783
6.833650e-01 3.567062e-01 784
7.178913e-01 4.081986e-01 785
8.255672e-01 3.579745e-01 786
8.019337e-01 4.491014e-01 787
7.864665e-01 3.808226e-01 788
7.348330e-01 3.585817e-01 789
9.724788e-01 4.089947e-01 790
8.576673e-01 4.247707e-01 791
9.230114e-01 4.683027e-01 792
7.521246e-01 4.683037e-01 793
8.478242e-01 5.006832e-01 794
8.841084e-01 5.285888e-01 795
7.492408e-01 5.376531e-01 796
7.143361e-01 5.015142e-01 797
8.268750e-01 6.413089e-01 798
8.493104e-01 5.769941e-01 799
8.852748e-01 6.293153e-01 800
7.753223e-01 6.866262e-01 801
9.750458e-01 1.638112e-01 802
8.316896e-01 1.433841e-01 803
5.680829e-01 9.789805e-01 804
5.392982e-01 9.327014e-01 805
5.922996e-01 8.844666e-01 806
5.119999e-01 9.694344e-01 807
4.042747e-01 9.508916e-01 808
4.048298e-01 9.026097e-01 809
1.656978e-01 6.396022e-01 810
2.299161e-01 6.557612e-01 811
1.887315e-01 5.280063e-01 812
2.207960e-01 5.874985e-01 813
2.047962e-01 7.558486e-01 814
2.384405e-01 7.113664e-01 815
3.786127e-01 3.981057e-01 816
3.889124e-01 4.666761e-01 817
5.374587e-01 4.624225e-01 818
5.925214e-01 4.184497e-01 819
4.811876e-01 4.976242e-01 820
4.308913e-01 4.251255e-01 821
3.235730e-01 7.310621e-01 822
3.536466e-01 4.995827e-01 823
4.204923e-01 5.323351e-01 824
3.687475e-01 5.693643e-01 825
4.026429e-01 6.046969e-01 826
2.952486e-01 6.821364e-01 827
3.485584e-01 6.360040e-01 828
3.162845e-01 5.952365e-01 829
2.810036e-01 5.583522e-01 830
7.557764e-01 6.142711e-01 831
6.887378e-01 6.130318e-01 832
7.087864e-01 6.694446e-01 833
6.646089e-01 7.160195e-01 834
7.477913e-01 7.362373e-01 835
7.420440e-01 7.888813e-01 836
7.001274e-01 7.595392e-01 837
6.860924e-01 8.713342e-01 838
6.054715e-01 7.399471e-01 839
6.320913e-01 8.318496e-01 840
6.496921e-01 7.779487e-01 841
5.863370e-01 7.969610e-01 842
5.141396e-01 8.246151e-01 843
4.924419e-01 9.030726e-01 844
4.477062e-01 8.413245e-01 845
3.629269e-01 8.488098e-01 846
3.341422e-01 7.845730e-01 847
4.018734e-01 7.189051e-01 848
3.769821e-01 6.799528e-01 849
5.350567e-01 7.645204e-01 850
4.475804e-01 7.582650e-01 851
4.908990e-01 7.259206e-01 852
4.456392e-01 6.821666e-01 853
5.231977e-01 6.531786e-01 854
4.785733e-01 6.164242e-01 855
5.463819e-01 5.768718e-01 856
6.074466e-01 5.034754e-01 857
6.596484e-01 5.507505e-01 858
5.918226e-01 6.158703e-01 859
6.256479e-01 6.706900e-01 860
5.627531e-01 6.894821e-01 861
4.985510e-02 9.534777e-02 862
8.027038e-01 9.525173e-01 863
2.509665e-01 9.525037e-01 864
9.705300e-01 1.790675e-02 865
6.785141e-02 9.807593e-01 866
7.465160e-02 8.539057e-01 867
8.336049e-02 4.394813e-01 868
3.676150e-01 9.706466e-01 869
8.896840e-01 1.627163e-01 870
2.874246e-02 6.536631e-01 871
1.985951e-01 1.244228e-01 872
4.460286e-02 4.113158e-02 873
2.284607e-01 8.978621e-01 874
7.499746e-01 1.515727e-01 875
1.096381e-01 9.532140e-01 876
1.106167e-01 2.556628e-01 877
3.138396e-01 4.356562e-02 878
7.242333e-01 1.042116e-01 879
3.003134e-02 7.279957e-01 880
8.648418e-01 3.250784e-01 881
9.207285e-01 2.898422e-01 882
8.609481e-01 6.766914e-01 883
8.706016e-01 7.529683e-01 884
9.020877e-01 2.084010e-01 885
2.093957e-01 7.295746e-02 886
9.834021e-01 2.503578e-01 887
9.290736e-02 1.521132e-01 888
5.129260e-02 2.253637e-01 889
9.394888e-01 8.308550e-01 890
1.635880e-01 3.156255e-02 891
8.945458e-01 7.975035e-01 892
9.388872e-01 9.458229e-01 893
7.035812e-01 9.729856e-01 894
6.651040e-01 8.834200e-02 895
6.770539e-01 2.362361e-02 896
2.182519e-02 3.930997e-01 897
2.775308e-01 1.214052e-01 898
4.405937e-01 2.831572e-02 899
4.971063e-01 1.577721e-02 900
1.795914e-01 1.817790e-01 901
8.365893e-01 2.622881e-01 902
7.818795e-01 5.815758e-02 903
7.989566e-01 1.266931e-01 904
1.593436e-01 8.146782e-01 905
6.767532e-02 3.603148e-01 906
1.360008e-01 4.872569e-01 907
2.271369e-01 2.023566e-01 908
9.673896e-01 3.504178e-01 909
9.695515e-01 5.584628e-01 910
9.322323e-01 7.551391e-01 911
8.180414e-01 6.997599e-01 912
2.822708e-01 4.464673e-01 913
2.685023e-01 3.957801e-01 914
3.241571e-01 3.761344e-01 915
6.096548e-01 2.044887e-01 916
6.812629e-01 1.889441e-01 917
6.547883e-01 3.260419e-01 918
6.568528e-01 4.041767e-01 919
8.149153e-01 3.873381e-01 920
8.994592e-01 4.925761e-01 921
7.205106e-01 4.461436e-01 922
8.560691e-01 5.323570e-01 923
7.489903e-01 4.999266e-01 924
8.124630e-01 6.165483e-01 925
7.805584e-01 7.972781e-01 926
9.530197e-01 1.397578e-01 927
6.143975e-01 9.727840e-01 928
5.657911e-01 9.513644e-01 929
3.210777e-01 8.780809e-01 930
3.128251e-01 9.416579e-01 931
1.783984e-01 6.826574e-01 932
1.894349e-01 5.838827e-01 933
2.457261e-01 5.607216e-01 934
2.568206e-01 5.057281e-01 935
2.263007e-01 7.896207e-01 936
3.410566e-01 4.421667e-01 937
4.765378e-01 3.864028e-01 938
3.043466e-01 8.147669e-01 939
4.339929e-01 5.688802e-01 940
2.922823e-01 6.562601e-01 941
3.027393e-01 5.331250e-01 942
7.184682e-01 5.571349e-01 943
7.130235e-01 6.984865e-01 944
7.260412e-01 8.211826e-01 945
5.604719e-01 8.244927e-01 946
5.057578e-01 8.700922e-01 947
5.591565e-01 4.986731e-01 948
5.487256e-02 9.164762e-01 949
1.262230e-01 7.232875e-01 950
8.053665e-01 8.923731e-01 951
1.673414e-01 9.546266e-01 952
1.215594e-01 7.207840e-02 953
8.879735e-01 8.680762e-01 954
7.162042e-01 9.104107e-01 955
5.949654e-01 9.075785e-02 956
5.460083e-01 4.452470e-02 957
1.590179e-01 9.003756e-01 958
2.049328e-02 5.569574e-01 959
1.357915e-01 5.860024e-01 960
1.166696e-01 3.964823e-01 961
8.652704e-02 5.305634e-01 962
3.908820e-02 4.935572e-01 963
1.848147e-01 3.471499e-01 964
8.135958e-01 1.883368e-01 965
9.271979e-01 6.390284e-01 966
9.533352e-01 4.556021e-01 967
6.597476e-01 9.401265e-01 968
2.604391e-01 8.353926e-01 969
8.590075e-01 4.579060e-02 970
8.636264e-01 9.351754e-01 971
7.327909e-01 4.282959e-02 972
9.002726e-01 9.143988e-02 973
5.631273e-02 8.040283e-01 974
1.513540e-01 1.355121e-01 975
5.899405e-01 1.366635e-01 976
1.983158e-02 3.168444e-01 977
3.908798e-01 7.041574e-02 978
4.828682e-01 1.510983e-01 979
4.869245e-01 8.244831e-02 980
1.012487e-01 7.660876e-01 981
8.926195e-02 6.439525e-01 982
7.994738e-02 5.952991e-01 983
1.226944e-01 3.429299e-01 984
3.096406e-01 1.845656e-01 985
1.995498e-01 4.674140e-01 986
2.428272e-01 3.059172e-01 987
1.815167e-01 4.143680e-01 988
1.616119e-01 2.479727e-01 989
1.911180e-01 2.918314e-01 990
3.167054e-01 3.086460e-01 991
2.778405e-01 2.739201e-01 992
8.079136e-01 3.099340e-01 993
8.274499e-01 8.192678e-01 994
3.773746e-01 3.349450e-01 995
3.268599e-01 1.256916e-01 996
3.894299e-01 1.263296e-01 997
4.341480e-01 1.749699e-01 998
5.358336e-01 9.513617e-02 999
4.763840e-01 2.757753e-01 1000
5.424711e-01 3.357044e-01 1001
5.290429e-01 3.798485e-01 1002
4.234334e-01 3.689327e-01 1003
3.788620e-01 2.671610e-01 1004
3.476862e-01 2.267490e-01 1005
4.188678e-01 2.349213e-01 1006
5.172835e-01 2.451509e-01 1007
5.922369e-01 3.682407e-01 1008
6.397026e-01 2.595762e-01 1009
7.736223e-01 2.429920e-01 1010
7.558906e-01 2.906995e-01 1011
7.093171e-01 2.461484e-01 1012
5.864058e-01 2.734427e-01 1013
6.243457e-01 4.460097e-01 1014
7.283529e-01 3.833609e-01 1015
7.810326e-01 4.295957e-01 1016
8.809881e-01 3.949806e-01 1017
8.087872e-01 4.856616e-01 1018
7.894337e-01 5.495002e-01 1019
6.794241e-01 4.827439e-01 1020
8.781414e-01 6.019899e-01 1021
6.075351e-01 8.612907e-01 1022
5.616282e-01 8.982367e-01 1023
4.894429e-01 9.669433e-01 1024
4.300533e-01 9.586783e-01 1025
3.683659e-01 9.011577e-01 1026
4.134354e-01 8.771119e-01 1027
2.416000e-01 6.773428e-01 1028
2.288995e-01 6.155174e-01 1029
1.627137e-01 5.368622e-01 1030
1.732814e-01 7.612339e-01 1031
2.755354e-01 7.325621e-01 1032
4.141002e-01 4.698285e-01 1033
4.991055e-01 4.486580e-01 1034
5.623410e-01 4.495486e-01 1035
5.006228e-01 5.220914e-01 1036
3.451187e-01 7.323867e-01 1037
3.760245e-01 5.076431e-01 1038
3.471553e-01 5.767256e-01 1039
4.193823e-01 6.293943e-01 1040
2.914196e-01 5.974981e-01 1041
7.644086e-01 5.939227e-01 1042
7.596902e-01 6.515326e-01 1043
6.587743e-01 6.076090e-01 1044
6.975961e-01 6.433905e-01 1045
7.256369e-01 7.531101e-01 1046
6.629922e-01 8.805471e-01 1047
6.496119e-01 7.344660e-01 1048
6.669850e-01 7.954559e-01 1049
5.870893e-01 7.672372e-01 1050
4.915917e-01 8.009841e-01 1051
4.551633e-01 9.121775e-01 1052
4.203959e-01 8.248982e-01 1053
3.754405e-01 7.778403e-01 1054
3.517505e-01 6.818975e-01 1055
5.427588e-01 7.296137e-01 1056
4.221626e-01 7.580392e-01 1057
4.720376e-01 7.434790e-01 1058
4.949742e-01 6.931281e-01 1059
4.247057e-01 6.999865e-01 1060
5.529281e-01 6.435925e-01 1061
5.011442e-01 6.113301e-01 1062
5.857115e-01 5.638838e-01 1063
5.906011e-01 6.898122e-01 1064
3.679141e-02 9.556995e-01 1065
5.307602e-02 6.922604e-01 1066
7.029819e-02 7.688123e-02 1067
9.191369e-01 3.287012e-01 1068
8.807891e-01 7.104680e-01 1069
8.248871e-01 7.388458e-01 1070
2.112343e-01 4.426061e-02 1071
2.555003e-01 7.241262e-02 1072
5.391538e-02 7.472175e-01 1073
9.796021e-01 8.182861e-01 1074
8.540593e-02 8.908327e-01 1075
9.090770e-01 8.191223e-01 1076
7.393273e-01 9.504505e-01 1077
6.786949e-01 9.679211e-01 1078
6.907487e-01 1.337465e-01 1079
3.393768e-01 3.179107e-02 1080
7.630163e-01 1.829812e-02 1081
1.147487e-01 8.173744e-01 1082
8.087854e-01 2.757512e-01 1083
8.917262e-01 2.828341e-01 1084
8.558506e-01 7.771779e-01 1085
9.438585e-01 5.109853e-01 1086
9.431200e-01 1.944999e-01 1087
2.538446e-01 7.782963e-01 1088
1.281486e-01 6.729096e-01 1089
6.743792e-02 1.941921e-01 1090
1.849896e-02 2.569940e-01 1091
1.209022e-01 1.873486e-01 1092
4.365441e-02 1.386646e-01 1093
8.340344e-01 1.151319e-01 1094
3.396681e-02 5.969915e-01 1095
7.820433e-02 4.060999e-01 1096
1.084697e-01 4.954711e-01 1097
7.906770e-01 1.698916e-01 1098
9.370591e-01 2.624272e-01 1099
9.314062e-01 7.023165e-01 1100
9.252516e-01 1.335555e-01 1101
2.155856e-01 8.652438e-01 1102
8.379525e-01 9.533485e-01 1103
8.851310e-01 8.959086e-01 1104
3.319957e-01 8.464347e-02 1105
8.585719e-01 1.881912e-01 1106
9.234606e-01 7.911527e-02 1107
2.313747e-02 7.850545e-01 1108
1.403939e-01 9.350778e-02 1109
1.824141e-01 9.287315e-01 1110
6.207202e-01 1.629404e-01 1111
4.915378e-02 3.178065e-01 1112
4.330831e-01 5.972861e-02 1113
5.111696e-01 8.089214e-02 1114
2.107979e-01 1.424274e-01 1115
1.475093e-01 7.715961e-01 1116
6.563449e-02 6.427628e-01 1117
1.150633e-01 3.201821e-01 1118
2.375637e-01 4.353485e-01 1119
2.280772e-01 3.529056e-01 1120
1.409911e-01 3.960535e-01 1121
1.919531e-01 3.879938e-01 1122
1.465643e-01 2.765472e-01 1123
2.703698e-01 2.997140e-01 1124
2.336284e-01 2.611121e-01 1125
7.808363e-01 3.546003e-01 1126
8.430087e-01 8.619557e-01 1127
3.330051e-01 4.825097e-01 1128
2.929024e-01 4.096126e-01 1129
4.269957e-01 1.164991e-01 1130
5.436106e-01 1.401414e-01 1131
4.437152e-01 3.015359e-01 1132
4.901629e-01 3.351896e-01 1133
3.316032e-01 2.813673e-01 1134
3.524543e-01 1.638707e-01 1135
3.857853e-01 2.185031e-01 1136
4.665870e-01 2.137103e-01 1137
5.598614e-01 2.101934e-01 1138
6.597199e-01 2.120796e-01 1139
7.411374e-01 1.784605e-01 1140
6.793127e-01 2.697212e-01 1141
6.991149e-01 3.312736e-01 1142
8.075469e-01 4.307534e-01 1143
9.532071e-01 4.268870e-01 1144
7.721077e-01 4.757605e-01 1145
8.580099e-01 4.696753e-01 1146
9.015833e-01 5.522328e-01 1147
8.145478e-01 6.602983e-01 1148
8.222275e-01 5.745724e-01 1149
5.898121e-01 9.109288e-01 1150
5.279946e-01 9.807708e-01 1151
4.003763e-01 9.268980e-01 1152
1.752573e-01 6.122866e-01 1153
2.094359e-01 6.708290e-01 1154
1.984207e-01 5.047808e-01 1155
1.931836e-01 7.851390e-01 1156
2.126354e-01 7.332360e-01 1157
4.032268e-01 4.081618e-01 1158
6.090622e-01 3.987104e-01 1159
4.481095e-01 5.108307e-01 1160
3.980545e-01 5.455807e-01 1161
3.798423e-01 6.122891e-01 1162
3.114241e-01 7.059278e-01 1163
3.223636e-01 6.383310e-01 1164
7.108176e-01 5.936397e-01 1165
6.823913e-01 7.348751e-01 1166
7.735958e-01 7.560102e-01 1167
7.564975e-01 7.033407e-01 1168
6.657532e-01 8.528002e-01 1169
6.125781e-01 8.143189e-01 1170
5.077456e-01 9.221961e-01 1171
4.492077e-01 8.688737e-01 1172
3.907504e-01 8.328553e-01 1173
3.443390e-01 8.274211e-01 1174
3.745985e-01 7.024790e-01 1175
4.508394e-01 7.911713e-01 1176
4.621932e-01 7.082021e-01 1177
6.428964e-01 4.810598e-01 1178
6.215328e-01 5.572941e-01 1179
6.511710e-01 6.668297e-01 1180
2.802091e-01 9.471658e-01 1181
5.970105e-02 8.360526e-01 1182
8.935664e-02 2.588801e-01 1183
7.461782e-01 9.455431e-02 1184
8.756766e-01 3.494559e-01 1185
9.512203e-01 9.212883e-01 1186
6.466428e-01 6.441610e-02 1187
2.840132e-01 1.378298e-01 1188
1.440378e-01 4.587747e-01 1189
2.853384e-01 4.641810e-01 1190
3.491422e-01 3.770684e-01 1191
6.175461e-01 3.485770e-01 1192
6.752051e-01 3.857417e-01 1193
7.103440e-01 4.291750e-01 1194
4.662601e-01 4.125025e-01 1195
4.624808e-01 5.644542e-01 1196
4.285113e-01 5.956686e-01 1197
3.246586e-01 5.418807e-01 1198
6.959186e-01 5.351476e-01 1199
7.503748e-01 8.356161e-01 1200
5.663473e-01 8.040580e-01 1201
4.941706e-01 8.322057e-01 1202
5.354845e-01 4.865745e-01 1203
5.831208e-01 5.124279e-01 1204
7.923051e-01 9.101922e-01 1205
5.668728e-01 9.357883e-02 1206
9.559153e-02 5.537786e-01 1207
4.451436e-02 4.562138e-01 1208
5.378333e-02 5.122880e-01 1209
9.052623e-01 6.438790e-01 1210
9.554546e-01 6.448392e-01 1211
9.776796e-01 4.727432e-01 1212
3.824034e-01 9.472367e-02 1213
4.549780e-01 1.577723e-01 1214
3.038039e-01 2.101330e-01 1215
1.986539e-01 3.089559e-01 1216
4.956043e-01 2.612717e-01 1217
5.465808e-01 3.077334e-01 1218
5.376883e-01 3.577092e-01 1219
4.063367e-01 3.410139e-01 1220
7.828599e-01 2.237838e-01 1221
7.112942e-01 2.282677e-01 1222
6.114946e-01 2.558254e-01 1223
9.217457e-01 3.912798e-01 1224
8.610153e-01 4.010633e-01 1225
8.020545e-01 5.211987e-01 1226
5.367542e-01 8.801790e-01 1227
3.448701e-01 9.124808e-01 1228
2.607433e-01 6.139068e-01 1229
2.596777e-01 7.083524e-01 1230
4.323892e-01 4.533042e-01 1231
5.362012e-01 4.148868e-01 1232
5.150696e-01 5.606561e-01 1233
3.472527e-01 7.588810e-01 1234
4.513577e-01 6.559880e-01 1235
7.739132e-01 5.734720e-01 1236
7.300274e-01 6.527976e-01 1237
7.240656e-01 7.765363e-01 1238
6.866541e-01 9.008957e-01 1239
6.348713e-01 7.554486e-01 1240
5.826273e-01 7.418081e-01 1241
5.065315e-01 7.723419e-01 1242
5.423467e-01 7.013270e-01 1243
4.993987e-01 6.644303e-01 1244
5.825230e-01 6.404597e-01 1245
5.678357e-01 5.871308e-01 1246
7.449553e-01 9.793015e-01 1247
1.280053e-01 8.489062e-01 1248
8.688852e-01 8.225707e-01 1249
5.933755e-02 2.618961e-01 1250
2.416454e-01 4.348389e-02 1251
1.375178e-01 1.613567e-01 1252
8.795817e-02 1.228081e-01 1253
1.269920e-01 9.012001e-01 1254
9.108217e-01 2.395877e-01 1255
9.083571e-01 7.382884e-01 1256
7.844415e-01 9.289183e-01 1257
9.614677e-01 8.501700e-01 1258
6.659646e-01 1.319322e-01 1259
3.510426e-01 6.447142e-02 1260
4.792116e-01 5.461528e-02 1261
2.359347e-01 1.364620e-01 1262
1.343254e-01 5.335545e-01 1263
2.204867e-01 3.216252e-01 1264
2.302887e-01 4.105866e-01 1265
2.775487e-01 3.483413e-01 1266
3.897751e-01 1.821312e-01 1267
5.211347e-01 1.828716e-01 1268
7.107553e-01 1.714429e-01 1269
7.681220e-01 3.942675e-01 1270
5.345551e-01 9.567215e-01 1271
1.869502e-01 6.334210e-01 1272
7.594314e-01 7.892527e-01 1273
6.496770e-01 5.209271e-01 1274
6.216671e-01 6.408134e-01 1275
8.320272e-02 8.404521e-01 1276
1.039261e-01 4.350890e-01 1277
3.882618e-01 9.686649e-01 1278
9.054077e-01 1.473624e-01 1279
4.790269e-02 5.956295e-02 1280
1.123000e-01 2.790751e-01 1281
8.897424e-01 3.261777e-01 1282
8.575325e-01 6.465896e-01 1283
9.594094e-01 9.446415e-01 1284
6.830443e-01 4.876918e-02 1285
2.973915e-01 1.177313e-01 1286
1.954440e-01 1.631701e-01 1287
8.496792e-01 2.500095e-01 1288
1.798750e-01 8.052828e-01 1289
7.875050e-02 3.456348e-01 1290
7.995143e-01 6.838115e-01 1291
6.314695e-01 2.098929e-01 1292
6.727304e-01 3.335185e-01 1293
6.344775e-01 3.958034e-01 1294
8.361300e-01 4.072393e-01 1295
8.728620e-01 4.993993e-01 1296
7.419640e-01 4.496052e-01 1297
3.324895e-01 8.588920e-01 1298
1.980958e-01 6.981373e-01 1299
2.269325e-01 5.445696e-01 1300
2.264338e-01 8.165976e-01 1301
3.370037e-01 4.233449e-01 1302
4.709582e-01 3.612874e-01 1303
3.051074e-01 7.851078e-01 1304
4.187027e-01 5.541238e-01 1305
2.831463e-01 5.133981e-01 1306
7.011123e-01 8.337860e-01 1307
5.836955e-01 8.450858e-01 1308
5.356331e-01 8.257991e-01 1309
4.921257e-01 8.852012e-01 1310
1.067907e-01 4.717263e-02 1311
9.493722e-01 4.827917e-01 1312
8.832377e-01 7.631614e-02 1313
6.045511e-01 1.139179e-01 1314
5.032118e-01 1.301563e-01 1315
1.165004e-01 7.495286e-01 1316
1.013279e-01 6.196628e-01 1317
1.401148e-01 3.664912e-01 1318
2.218924e-01 4.829525e-01 1319
1.531019e-01 2.277660e-01 1320
2.079652e-01 2.742726e-01 1321
3.399379e-01 3.107374e-01 1322
2.904054e-01 2.416303e-01 1323
8.248974e-01 3.341637e-01 1324
4.100021e-01 1.271450e-01 1325
4.695184e-01 2.505160e-01 1326
5.743960e-01 3.246344e-01 1327
5.058683e-01 3.991481e-01 1328
3.380124e-01 1.967886e-01 1329
3.982033e-01 2.512100e-01 1330
5.400309e-01 2.297676e-01 1331
5.780871e-01 3.943108e-01 1332
7.538446e-01 2.304812e-01 1333
7.727434e-01 3.003385e-01 1334
7.247436e-01 2.886762e-01 1335
5.947832e-01 4.417639e-01 1336
9.015257e-01 4.302945e-01 1337
8.147195e-01 5.487880e-01 1338
8.569416e-01 5.983174e-01 1339
6.284988e-01 8.804391e-01 1340
3.877140e-01 8.832550e-01 1341
1.689932e-01 5.654809e-01 1342
2.530855e-01 7.413953e-01 1343
5.120584e-01 4.709775e-01 1344
4.744249e-01 5.231047e-01 1345
3.760435e-01 4.855239e-01 1346
3.250850e-01 5.758793e-01 1347
4.026098e-01 6.475693e-01 1348
7.848425e-01 6.123263e-01 1349
6.525619e-01 5.783708e-01 1350
6.764506e-01 6.326643e-01 1351
6.562710e-01 9.083460e-01 1352
6.262976e-01 7.286674e-01 1353
6.808622e-01 7.774088e-01 1354
5.600603e-01 7.777717e-01 1355
4.779896e-01 7.713667e-01 1356
4.345030e-01 9.133766e-01 1357
3.378501e-01 6.594784e-01 1358
5.175892e-01 7.132767e-01 1359
4.022877e-01 7.741916e-01 1360
4.728843e-01 6.751359e-01 1361
5.713946e-01 6.655979e-01 1362
5.192360e-01 5.866813e-01 1363
5.687733e-02 6.654810e-01 1364
5.793674e-02 7.657254e-01 1365
9.494582e-01 5.400693e-01 1366
9.513613e-01 1.780860e-01 1367
1.245281e-01 6.970163e-01 1368
8.131619e-01 1.017071e-01 1369
6.138023e-02 4.053351e-01 1370
2.375821e-01 8.710329e-01 1371
2.068366e-01 9.142789e-01 1372
1.572644e-01 4.172707e-01 1373
2.773782e-01 4.266503e-01 1374
4.307860e-01 3.215164e-01 1375
5.086227e-01 3.287541e-01 1376
7.937266e-01 4.699178e-01 1377
5.971215e-01 9.418136e-01 1378
4.278894e-01 3.990026e-01 1379
4.356648e-01 4.840692e-01 1380
7.369742e-01 5.921358e-01 1381
6.913391e-01 7.096130e-01 1382
7.729570e-01 7.335299e-01 1383
6.064623e-01 7.916646e-01 1384
3.980458e-01 6.948377e-01 1385
4.429819e-01 8.147805e-01 1386
2.605455e-01 9.332652e-01 1387
1.563954e-01 4.777862e-01 1388
3.608394e-01 3.573247e-01 1389
7.000733e-01 3.874786e-01 1390
4.750196e-01 4.419696e-01 1391
4.576242e-01 6.003259e-01 1392
3.354955e-01 5.235683e-01 1393
7.099565e-01 5.242497e-01 1394
6.807909e-02 5.270647e-01 1395
9.462175e-01 6.785221e-01 1396
5.425267e-01 2.845926e-01 1397
6.267563e-01 2.740859e-01 1398
8.993808e-01 3.739152e-01 1399
3.213955e-01 9.155011e-01 1400
2.545794e-01 6.454692e-01 1401
5.335153e-01 5.164859e-01 1402
8.696001e-01 8.500821e-01 1403
2.856739e-01 4.323991e-02 1404
8.281941e-01 7.921149e-01 1405
8.807520e-01 2.063613e-01 1406
1.413781e-01 6.477223e-01 1407
3.624353e-01 9.482999e-01 1408
9.039032e-01 7.807349e-01 1409
6.515185e-01 1.138934e-01 1410
8.696014e-02 3.639769e-01 1411
6.480504e-01 3.084996e-01 1412
6.648873e-01 4.287938e-01 1413
3.762941e-01 4.217127e-01 1414
7.252245e-01 7.996098e-01 1415
1.745848e-01 1.286846e-01 1416
4.734134e-01 1.025469e-01 1417
1.926543e-01 4.361569e-01 1418
2.973171e-01 3.302119e-01 1419
3.469173e-01 1.072549e-01 1420
3.924172e-01 3.084037e-01 1421
4.233154e-01 2.626078e-01 1422
5.154071e-01 2.166408e-01 1423
7.685463e-01 2.775157e-01 1424
7.267061e-01 2.428261e-01 1425
5.861875e-01 2.474444e-01 1426
6.104408e-01 4.704905e-01 1427
8.249304e-01 5.008064e-01 1428
7.093984e-01 4.639683e-01 1429
8.824835e-01 5.786519e-01 1430
6.128256e-01 8.402065e-01 1431
5.382647e-01 9.088604e-01 1432
1.746325e-01 7.359738e-01 1433
2.900157e-01 7.447921e-01 1434
4.788140e-01 4.682103e-01 1435
3.980354e-01 6.270762e-01 1436
2.717884e-01 5.815204e-01 1437
7.563492e-01 6.720834e-01 1438
4.702947e-01 8.936961e-01 1439
4.001585e-01 7.452596e-01 1440
5.278855e-01 6.220773e-01 1441
5.997364e-01 5.892707e-01 1442
6.140661e-01 6.870924e-01 1443
9.652880e-02 9.252004e-02 1444
9.198699e-01 3.501822e-01 1445
7.610185e-02 7.542881e-01 1446
9.580890e-01 8.121619e-01 1447
7.234945e-01 9.321367e-01 1448
9.952487e-02 6.743534e-01 1449
5.567888e-02 6.018684e-01 1450
7.383681e-02 4.229455e-01 1451
8.237483e-01 9.353807e-01 1452
6.246973e-01 1.872117e-01 1453
2.584844e-01 4.504682e-01 1454
2.617934e-01 2.307700e-01 1455
7.589565e-01 3.475289e-01 1456
3.307512e-01 4.582120e-01 1457
5.650435e-01 1.323478e-01 1458
4.661359e-01 2.993236e-01 1459
4.410296e-01 1.972355e-01 1460
5.690650e-01 1.898728e-01 1461
6.688479e-01 2.328692e-01 1462
7.701967e-01 4.527594e-01 1463
8.730446e-01 4.469151e-01 1464
8.003287e-01 5.694524e-01 1465
1.738027e-01 5.115714e-01 1466
2.182964e-01 7.143186e-01 1467
3.995630e-01 3.783827e-01 1468
4.211042e-01 5.112533e-01 1469
3.760713e-01 5.475957e-01 1470
3.258798e-01 6.834661e-01 1471
3.005101e-01 6.389495e-01 1472
3.931215e-01 8.022148e-01 1473
3.290187e-01 8.067143e-01 1474
6.023201e-01 5.368684e-01 1475
6.791185e-01 6.627468e-01 1476
8.670233e-01 3.754983e-01 1477
9.312012e-01 9.233973e-01 1478
4.891077e-01 5.517444e-01 1479
6.858945e-01 5.509619e-01 1480
7.396125e-01 8.564736e-01 1481
5.067587e-01 8.483145e-01 1482
5.568070e-01 4.722324e-01 1483
5.788167e-01 7.590700e-02 1484
2.870290e-01 1.946209e-01 1485
5.663656e-01 2.936779e-01 1486
5.720990e-01 3.501221e-01 1487
9.277223e-01 4.133169e-01 1488
7.741617e-01 5.246807e-01 1489
3.371415e-01 8.900634e-01 1490
5.352606e-01 3.971819e-01 1491
4.570963e-01 6.274436e-01 1492
5.218033e-01 7.965306e-01 1493
3.747181e-02 2.536098e-01 1494
1.153979e-01 1.590587e-01 1495
9.074272e-01 7.146252e-01 1496
2.449895e-01 3.939009e-01 1497
3.668908e-01 1.805092e-01 1498
4.932888e-01 1.733430e-01 1499
7.465166e-01 3.995786e-01 1500
2.117804e-01 6.402371e-01 1501
8.385086e-01 6.596121e-01 1502
1.818573e-01 8.282176e-01 1503
8.159446e-01 4.153983e-01 1504
2.416563e-01 5.294127e-01 1505
6.856133e-01 8.494816e-01 1506
1.462491e-01 3.405787e-01 1507
3.218078e-01 2.530204e-01 1508
3.879240e-01 8.613345e-01 1509
5.589621e-01 7.524480e-01 1510
9.621121e-01 5.213495e-01 1511
2.094068e-01 9.367503e-01 1512
6.160856e-01 9.239679e-01 1513
7.324883e-01 6.130978e-01 1514
9.243016e-01 6.618408e-01 1515
5.503906e-01 5.406219e-01 1516
7.989192e-01 7.763881e-01 1517
1.517793e-01 6.891986e-01 1518
3.568926e-01 2.706615e-01 1519
9.002075e-01 5.993033e-01 1520
2.976152e-01 5.757222e-01 1521
4.767286e-01 9.191943e-01 1522
4.248812e-01 7.343249e-01 1523
5.011895e-01 6.365394e-01 1524
6.103430e-01 7.100761e-01 1525
2.816783e-01 7.297452e-02 1526
6.236559e-02 7.287832e-01 1527
8.719209e-01 7.969841e-01 1528
5.987014e-01 1.572932e-01 1529
4.334156e-01 9.444434e-02 1530
5.379944e-01 1.619314e-01 1531
4.214306e-01 2.953224e-01 1532
3.031856e-01 2.789008e-01 1533
3.745085e-01 1.528023e-01 1534
5.869297e-01 2.149842e-01 1535
7.459457e-01 2.052875e-01 1536
6.875127e-01 2.915287e-01 1537
7.133415e-01 3.504660e-01 1538
8.817383e-01 4.730429e-01 1539
8.328761e-01 4.718081e-01 1540
9.251101e-01 5.491542e-01 1541
8.284823e-01 5.986867e-01 1542
3.843859e-01 9.202919e-01 1543
1.505036e-01 6.163456e-01 1544
3.924992e-01 5.227650e-01 1545
3.580381e-01 6.154601e-01 1546
7.320258e-01 7.100036e-01 1547
6.521850e-01 8.325101e-01 1548
3.683730e-01 7.311478e-01 1549
6.619388e-01 4.708655e-01 1550
6.691039e-01 6.913106e-01 1551
8.486900e-01 3.479301e-01 1552
3.696029e-01 3.794986e-01 1553
6.138836e-01 3.158455e-01 1554
3.436434e-01 5.518279e-01 1555
6.738928e-01 5.284682e-01 1556
4.777004e-01 8.515010e-01 1557
6.974107e-02 4.644357e-01 1558
3.709577e-01 7.417235e-02 1559
4.948528e-01 2.982022e-01 1560
2.840408e-01 7.060070e-01 1561
5.301354e-01 4.399439e-01 1562
7.676920e-01 5.524713e-01 1563
7.455999e-01 6.346522e-01 1564
6.651254e-01 1.723111e-01 1565
2.565505e-01 3.517581e-01 1566
7.654608e-01 4.122867e-01 1567
6.154866e-01 6.119723e-01 1568
1.191035e-01 4.461907e-01 1569
2.117477e-01 5.310607e-01 1570
2.848620e-01 4.894957e-01 1571
5.618911e-01 8.765386e-01 1572
2.264898e-01 4.588389e-01 1573
4.990137e-01 3.743530e-01 1574
5.416251e-01 2.575709e-01 1575
7.423486e-01 2.786676e-01 1576
8.796356e-01 4.177924e-01 1577
2.301377e-01 7.391436e-01 1578
3.943424e-01 6.677868e-01 1579
5.145341e-01 7.436031e-01 1580
5.429475e-01 5.958007e-01 1581
5.775414e-01 9.325523e-01 1582
1.582669e-01 4.955751e-01 1583
4.505715e-01 4.393452e-01 1584
4.525151e-01 5.809040e-01 1585
2.785500e-01 6.390419e-01 1586
5.195202e-01 5.394140e-01 1587
1.120049e-01 3.675737e-01 1588
3.764575e-01 4.473889e-01 1589
5.842982e-01 4.840443e-01 1590
3.085742e-01 7.531000e-01 1591
7.148257e-01 9.510886e-01 1592
2.582780e-01 2.529230e-01 1593
5.791822e-01 1.136241e-01 1594
4.367123e-01 2.199709e-01 1595
3.774594e-01 8.161229e-01 1596
6.286350e-01 5.334500e-01 1597
7.254850e-01 8.418332e-01 1598
5.574731e-01 3.673654e-01 1599
4.388845e-01 6.382574e-01 1600
4.480293e-01 1.187555e-01 1601
3.827067e-01 5.879909e-01 1602
3.083565e-01 6.177260e-01 1603
6.380883e-01 8.034829e-01 1604
4.277443e-01 7.771282e-01 1605
6.400261e-01 4.613328e-01 1606
6.466325e-01 3.474553e-01 1607
5.649019e-01 4.242041e-01 1608
6.437722e-01 1.426416e-01 1609
2.746034e-01 3.708947e-01 1610
4.112327e-01 1.698959e-01 1611
5.126314e-01 9.481049e-01 1612
1.730036e-01 7.071252e-01 1613
6.933096e-01 8.069633e-01 1614
2.423124e-01 4.880565e-01 1615
8.025780e-01 3.385684e-01 1616
7.420863e-01 3.028915e-01 1617
9.015502e-01 4.039393e-01 1618
8.625408e-01 6.184127e-01 1619
1.893714e-01 5.518817e-01 1620
4.222632e-01 6.632612e-01 1621
7.758399e-01 6.344601e-01 1622
6.397262e-01 5.623192e-01 1623
3.644370e-01 6.594424e-01 1624
5.432128e-01 6.718920e-01 1625
4.517084e-01 3.223673e-01 1626
1.727037e-01 4.612518e-01 1627
3.396436e-01 3.575519e-01 1628
4.823399e-01 5.879138e-01 1629
6.058591e-01 2.805749e-01 1630
2.718023e-01 6.621485e-01 1631
7.464812e-02 3.838457e-01 1632
3.730213e-01 2.879571e-01 1633
7.605471e-01 2.576925e-01 1634
6.999912e-01 4.813666e-01 1635
4.604432e-01 4.844132e-01 1636
5.665307e-01 1.612338e-01 1637
5.014406e-01 1.923736e-01 1638
5.624522e-01 5.207097e-01 1639
5.890948e-01 7.163523e-01 1640
8.153891e-01 4.634792e-01 1641
9.226777e-01 5.662615e-01 1642
3.648830e-01 9.249722e-01 1643
1.290592e-01 6.267967e-01 1644
9.414533e-02 4.573721e-01 1645
5.030300e-01 2.810182e-01 1646
6.348262e-01 6.188103e-01 1647
3.104323e-01 5.036683e-01 1648
5.523167e-01 8.519305e-01 1649
4.964338e-01 3.528639e-01 1650
3.590295e-01 4.351053e-01 1651
3.651216e-01 8.268724e-01 1652
6.331536e-01 5.006198e-01 1653
2.371189e-01 6.363353e-01 1654
7.824883e-01 2.618153e-01 1655
6.874492e-01 4.513220e-01 1656
6.062937e-01 5.677265e-01 1657
6.770269e-01 8.314009e-01 1658
5.370545e-01 5.600309e-01 1659
6.302623e-01 3.267948e-01 1660
6.884304e-01 5.084599e-01 1661
8.865154e-02 4.839534e-01 1662
6.684920e-01 1.522387e-01 1663
5.788028e-01 8.652975e-01 1664
2.163774e-01 4.378572e-01 1665
3.598332e-01 7.983522e-01 1666
4.581771e-01 1.388430e-01 1667
3.648191e-01 5.943751e-01 1668
4.700896e-01 3.311825e-01 1669
3.656722e-01 3.102667e-01 1670
4.822415e-01 1.922304e-01 1671
5.684324e-01 7.096997e-01 1672
5.616172e-01 5.612596e-01 1673
6.056561e-01 3.301652e-01 1674
4.938190e-02 4.741327e-01 1675
3.332534e-01 6.161694e-01 1676
6.436007e-01 1.664788e-01 1677
6.493886e-02 4.903770e-01 1678

159 0 10 1 1
0 1 1 1 1
1 2 1 1 1
2 3 1 1 1
3 4 1 1 1
4 5 1 1 1
5 6 1 1 1
6 7 1 1 1
7 8 1 1 1
8 9 1 1 1
9 10 1 1 1
10 11 1 1 1
11 12 1 1 1
12 13 1 1 1
13 14 1 1 1
14 15 1 1 1
15 16 1 1 1
16 17 1 1 1
17 18 1 1 1
18 19 1 1 1
19 20 1 1 1
20 21 1 1 1
21 22 1 1 1
22 23 1 1 1
23 24 1 1 1
24 25 1 1 1
25 26 1 1 1
26 27 1 1 1
27 28 1 1 1
28 29 1 1 1
29 30 1 1 1
30 31 1 1 1
31 32 1 1 1
32 33 1 1 1
33 34 1 1 1
34 35 1 1 1
35 36 1 1 1
36 37 1 1 1
37 38 1 1 1
38 39 1 10 1
39 40 10 10 10
40 41 10 10 10
41 42 10 10 10
42 43 10 10 10
43 44 10 10 10
44 45 10 10 10
45 46 10 10 10
46 47 10 10 10
47 48 10 10 10
48 49 10 10 10
49 50 10 10 10
50 51 10 10 10
51 52 10 10 10
52 53 10 10 10
53 54 10 10 10
54 55 10 10 10
55 56 10 10 10
56 57 10 10 10
57 58 10 10 10
58 59 10 10 10
59 60 10 10 10
60 61 10 10 10
61 62 10 10 10
62 63 10 10 10
63 64 10 10 10
64 65 10 10 10
65 66 10 10 10
66 67 10 10 10
67 68 10 10 10
68 69 10 10 10
69 70 10 10 10
70 71 10 10 10
71 72 10 10 10
72 73 10 10 10
73 74 10 10 10
74 75 10 10 10
75 76 10 10 10
76 77 10 10 10
77 78 10 10 10
78 79 10 10 10
79 80 10 1 1
80 81 1 1 1
81 82 1 1 1
82 83 1 1 1
83 84 1 1 1
84 85 1 1 1
85 86 1 1 1
86 87 1 1 1
87 88 1 1 1
88 89 1 1 1
89 90 1 1 1
90 91 1 1 1
91 92 1 1 1
92 93 1 1 1
93 94 1 1 1
94 95 1 1 1
95 96 1 1 1
96 97 1 1 1
97 98 1 1 1
98 99 1 1 1
99 100 1 1 1
100 101 1 1 1
101 102 1 1 1
102 103 1 1 1
103 104 1 1 1
104 105 1 1 1
105 106 1 1 1
106 107 1 1 1
107 108 1 1 1
108 109 1 1 1
109 110 1 1 1
110 111 1 1 1
111 112 1 1 1
112 113 1 1 1
113 114 1 1 1
114 115 1 1 1
115 116 1 1 1
116 117 1 1 1
117 118 1 1 1
118 119 1 10 1
119 120 10 10 10
120 121 10 10 10
121 122 10 10 10
122 123 10 10 10
123 124 10 10 10
124 125 10 10 10
125 126 10 10 10
126 127 10 10 10
127 128 10 10 10
128 129 10 10 10
129 130 10 10 10
130 131 10 10 10
131 132 10 10 10
132 133 10 10 10
133 134 10 10 10
134 135 10 10 10
135 136 10 10 10
136 137 10 10 10
137 138 10 10 10
138 139 10 10 10
139 140 10 10 10
140 141 10 10 10
141 142 10 10 10
142 143 10 10 10
143 144 10 10 10
144 145 10 10 10
145 146 10 10 10
146 147 10 10 10
147 148 10 10 10
148 149 10 10 10
149 150 10 10 10
150 151 10 10 10
151 152 10 10 10
152 153 10 10 10
153 154 10 10 10
154 155 10 10 10
155 156 10 10 10
156 157 10 10 10
157 158 10 10 10
158 159 10 10 10
