\BOOKMARK [0][-]{chapter.1}{Introduction}{}% 1
\BOOKMARK [0][-]{chapter.2}{Files}{}% 2
\BOOKMARK [0][-]{chapter.3}{Code Installation}{}% 3
\BOOKMARK [1][-]{section.3.1}{Dependencies}{chapter.3}% 4
\BOOKMARK [1][-]{section.3.2}{Compile SLOWS}{chapter.3}% 5
\BOOKMARK [0][-]{chapter.4}{Prepossessing}{}% 6
\BOOKMARK [1][-]{section.4.1}{Create a grid file using Gmsh}{chapter.4}% 7
\BOOKMARK [1][-]{section.4.2}{Create a grid file using an equilateral mesh generator}{chapter.4}% 8
\BOOKMARK [1][-]{section.4.3}{Extra files}{chapter.4}% 9
\BOOKMARK [0][-]{chapter.5}{Using SLOWS}{}% 10
\BOOKMARK [1][-]{section.5.1}{Run a test case already introduced in the code}{chapter.5}% 11
\BOOKMARK [1][-]{section.5.2}{Set up a new test case}{chapter.5}% 12
\BOOKMARK [1][-]{section.5.3}{Postprocessing}{chapter.5}% 13
\BOOKMARK [0][-]{chapter.6}{Error Messages}{}% 14
\BOOKMARK [0][-]{chapter.7}{Examples}{}% 15
