\relax 
\providecommand\hyper@newdestlabel[2]{}
\providecommand\HyperFirstAtBeginDocument{\AtBeginDocument}
\HyperFirstAtBeginDocument{\ifx\hyper@anchor\@undefined
\global\let\oldcontentsline\contentsline
\gdef\contentsline#1#2#3#4{\oldcontentsline{#1}{#2}{#3}}
\global\let\oldnewlabel\newlabel
\gdef\newlabel#1#2{\newlabelxx{#1}#2}
\gdef\newlabelxx#1#2#3#4#5#6{\oldnewlabel{#1}{{#2}{#3}}}
\AtEndDocument{\ifx\hyper@anchor\@undefined
\let\contentsline\oldcontentsline
\let\newlabel\oldnewlabel
\fi}
\fi}
\global\let\hyper@last\relax 
\gdef\HyperFirstAtBeginDocument#1{#1}
\providecommand\HyField@AuxAddToFields[1]{}
\providecommand\HyField@AuxAddToCoFields[2]{}
\@writefile{toc}{\contentsline {chapter}{\numberline {1}Introduction}{2}{chapter.1}\protected@file@percent }
\@writefile{lof}{\addvspace {10\p@ }}
\@writefile{lot}{\addvspace {10\p@ }}
\@writefile{toc}{\contentsline {chapter}{\numberline {2}Files}{3}{chapter.2}\protected@file@percent }
\@writefile{lof}{\addvspace {10\p@ }}
\@writefile{lot}{\addvspace {10\p@ }}
\@writefile{toc}{\contentsline {chapter}{\numberline {3}Code Installation}{4}{chapter.3}\protected@file@percent }
\@writefile{lof}{\addvspace {10\p@ }}
\@writefile{lot}{\addvspace {10\p@ }}
\@writefile{toc}{\contentsline {section}{\numberline {3.1}Dependencies}{4}{section.3.1}\protected@file@percent }
\@writefile{toc}{\contentsline {section}{\numberline {3.2}Compile SLOWS}{4}{section.3.2}\protected@file@percent }
\newlabel{options_table}{{3.2}{6}{Compile SLOWS}{section.3.2}{}}
\@writefile{toc}{\contentsline {chapter}{\numberline {4}Prepossessing}{8}{chapter.4}\protected@file@percent }
\@writefile{lof}{\addvspace {10\p@ }}
\@writefile{lot}{\addvspace {10\p@ }}
\@writefile{toc}{\contentsline {section}{\numberline {4.1}Create a grid file using Gmsh}{9}{section.4.1}\protected@file@percent }
\@writefile{toc}{\contentsline {section}{\numberline {4.2}Create a grid file using an equilateral mesh generator}{9}{section.4.2}\protected@file@percent }
\@writefile{toc}{\contentsline {section}{\numberline {4.3}Extra files}{9}{section.4.3}\protected@file@percent }
\@writefile{toc}{\contentsline {chapter}{\numberline {5}Using SLOWS}{10}{chapter.5}\protected@file@percent }
\@writefile{lof}{\addvspace {10\p@ }}
\@writefile{lot}{\addvspace {10\p@ }}
\citation{arpaia2016r}
\citation{arpaia2016r}
\citation{arpaia2016r}
\citation{filippini2016flexible}
\citation{filippini2016flexible}
\citation{filippini2016flexible}
\citation{ricchiuto2014upwind}
\@writefile{toc}{\contentsline {section}{\numberline {5.1}Run a test case already introduced in the code}{14}{section.5.1}\protected@file@percent }
\newlabel{old_cases}{{5.1}{14}{Run a test case already introduced in the code}{section.5.1}{}}
\citation{park2013tsunami}
\@writefile{toc}{\contentsline {section}{\numberline {5.2}Set up a new test case}{15}{section.5.2}\protected@file@percent }
\@writefile{toc}{\contentsline {section}{\numberline {5.3}Postprocessing}{15}{section.5.3}\protected@file@percent }
\@writefile{toc}{\contentsline {chapter}{\numberline {6}Error Messages}{16}{chapter.6}\protected@file@percent }
\@writefile{lof}{\addvspace {10\p@ }}
\@writefile{lot}{\addvspace {10\p@ }}
\bibdata{manual_ref}
\@writefile{toc}{\contentsline {chapter}{\numberline {7}Examples}{17}{chapter.7}\protected@file@percent }
\@writefile{lof}{\addvspace {10\p@ }}
\@writefile{lot}{\addvspace {10\p@ }}
\bibcite{arpaia2016r}{{1}{}{{}}{{}}}
\bibcite{filippini2016flexible}{{2}{}{{}}{{}}}
\bibcite{kazolea2013well}{{3}{}{{}}{{}}}
\bibcite{park2013tsunami}{{4}{}{{}}{{}}}
\bibcite{ricchiuto2014upwind}{{5}{}{{}}{{}}}
\bibstyle{plain}
\providecommand\NAT@force@numbers{}\NAT@force@numbers
\gdef \@abspage@last{19}
